{"Sphere30cm":[
  {
    "material":"ALUMINIUM_METAL",
    "TSLibrary":"ENDFB71",
    "G4_name":"Aluminium_TS",
    "density":2.699,
    "temperature":294,
    "pressure":1,
    "energy":10,
    "T4_file":"ENDFB71_SPHERE_30CM_AlMetal_294_1E-5_20210622",
    "M6_file":"ENDFB71_ALUMINIUM_METAL_30CM_293.6_1E-5"
  },
  {
    "material":"BERYLLIUM_METAL",
    "TSLibrary":"ENDFB71",
    "G4_name":"Beryllium_TS",
    "density":1.85,
    "temperature":296,
    "pressure":1,
    "energy":10,
    "T4_file":"ENDFB71_SPHERE_30CM_BERYLLIUM_METAL_296_1E-5_20210622",
    "M6_file":"ENDFB71_BERYLLIUM_METAL_30CM_293.6_1E-5"
  },
  {
    "material":"BERYLLIUM_OXIDE",
    "TSLibrary":"ENDFB71",
    "G4_name":"Beryllium_Oxide_TS",
    "density":3.01,
    "temperature":294,
    "pressure":1,
    "energy":10,
    "T4_file":"ENDFB71_SPHERE_30CM_BERYLLIUM_OXYDE_294_1E-5_20210622",
    "M6_file":"ENDFB71_BERYLLIUM_OXIDE_30CM_293.6_1E-5"
  },
  {
    "material":"GRAPHITE",
    "TSLibrary":"ENDFB71",
    "G4_name":"Graphite_TS",
    "density":2.23,
    "temperature":296,
    "pressure":1,
    "energy":10,
    "T4_file":"ENDFB71_SPHERE_30CM_GRAPHITE_296_1E-5_20210622",
    "M6_file":"ENDFB71_GRAPHITE_30CM_293.6_1E-5"
  },
  {
    "material":"LIGHT_WATER",
    "TSLibrary":"ENDFB71",
    "G4_name":"Water_TS",
    "density":0.9955,
    "temperature":294,
    "pressure":1,
    "energy":10,
    "T4_file":"ENDFB71_SPHERE_30CM_LIGHT_WATER_294_1E-5_20210622",
    "M6_file":"ENDFB71_LIGHT_WATER_30CM_293.6_1E-5"
  },
  {
    "material":"PARA_HYDROGEN",
    "TSLibrary":"ENDFB71",
    "G4_name":"Para_Hydrogen_TS",
    "density":0.07085,
    "temperature":20,
    "pressure":1,
    "energy":10,
    "T4_file":"ENDFB71_SPHERE_30CM_PARA_HYDROGEN_20_1E-5_20210622",
    "M6_file":"ENDFB71_PARA_HYDROGEN_30CM_293.6_1E-5"
  },
  {
    "material":"POLYETHYLENE",
    "TSLibrary":"ENDFB71",
    "G4_name":"Polyethylene_TS",
    "density":0.94,
    "temperature":296,
    "pressure":1,
    "energy":10,
    "T4_file":"ENDFB71_SPHERE_30CM_POLYETHYLENE_296_1E-5_20210622",
    "M6_file":"ENDFB71_POLYETHYLENE_30CM_293.6_1E-5"
  }],
  "ThinCylinder":[
    {
      "material":"BERYLLIUM_METAL",
      "TSLibrary":"ENDFB71",
      "G4_name":"Beryllium_TS",
      "density":1.85,
      "temperature":296,
      "pressure":1,
      "energy":0.01,
      "T4_file":"ENDFB71_THIN_CYLINDER_BERYLLIUM_METAL_296_1E-8_20210624",
      "M6_file":"ENDFB71_BERYLLIUM_METAL_293.6K_1e-8"
    },
    {
      "material":"BERYLLIUM_OXIDE",
      "TSLibrary":"ENDFB71",
      "G4_name":"Beryllium_Oxide_TS",
      "density":3.01,
      "temperature":294,
      "pressure":1,
      "energy":0.01,
      "T4_file":"ENDFB71_THIN_CYLINDER_BERYLLIUM_OXYDE_294_1E-8_20210624",
      "M6_file":"ENDFB71_BERYLLIUM_OXIDE_293.6K_1e-8"
    },
    {
      "material":"GRAPHITE",
      "TSLibrary":"ENDFB71",
      "G4_name":"Graphite_TS",
      "density":2.23,
      "temperature":296,
      "pressure":1,
      "energy":0.01,
      "T4_file":"ENDFB71_THIN_CYLINDER_GRAPHITE_296_1E-8_20210624",
      "M6_file":"ENDFB71_GRAPHITE_293.6K_1e-8"
    },
    {
      "material":"LIGHT_WATER",
      "TSLibrary":"ENDFB71",
      "G4_name":"Water_TS",
      "density":0.9955,
      "temperature":294,
      "pressure":1,
      "energy":0.01,
      "T4_file":"ENDFB71_THIN_CYLINDER_LIGHT_WATER_294_1E-8_20210624",
      "M6_file":"ENDFB71_LIGHT_WATER_293.6K_1e-8"
    },
    {
      "material":"PARA_HYDROGEN",
      "TSLibrary":"ENDFB71",
      "G4_name":"Para_Hydrogen_TS",
      "density":0.07085,
      "temperature":20,
      "pressure":1,
      "energy":0.01,
      "T4_file":"ENDFB71_THIN_CYLINDER_PARA_HYDROGEN_20_1E-8_20210624",
      "M6_file":"ENDFB71_PARA_HYDROGEN_20K_1e-8"
    },
    {
      "material":"POLYETHYLENE",
      "TSLibrary":"ENDFB71",
      "G4_name":"Polyethylene_TS",
      "density":0.94,
      "temperature":296,
      "pressure":1,
      "energy":0.01,
      "T4_file":"ENDFB71_THIN_CYLINDER_POLYETHYLENE_296_1E-8_20210624",
      "M6_file":"ENDFB71_POLYETHYLENE_293.6K_1e-8"
    },
    {
      "material":"POLYETHYLENE",
      "TSLibrary":"ENDFB80",
      "G4_name":"Polyethylene_TS",
      "density":0.94,
      "temperature":77,
      "pressure":1,
      "energy":0.01,
      "T4_file":"ENDFB80_THIN_CYLINDER_POLYETHYLENE_77_1E-8_20211015",
      "M6_file":"ENDFB80_POLYETHYLENE_77K_1e-8"
    },
    {
      "material":"POLYETHYLENE",
      "TSLibrary":"ENDFB80",
      "G4_name":"Polyethylene_TS",
      "density":0.94,
      "temperature":294,
      "pressure":1,
      "energy":0.01,
      "T4_file":"ENDFB80_THIN_CYLINDER_POLYETHYLENE_294_1E-8__20210625",
      "M6_file":"ENDFB80_POLYETHYLENE_293.6K_1e-8"
    }]
}
