1.000000000000000101e-11,0.000000000000000000e+00,-1.000000000000000000e+00,2.908840000000000000e+05
1.047129999999999962e-11,2.000000000000000000e+00,-9.899999999999999911e-01,3.998250000000000000e+05
1.096480000000000029e-11,0.000000000000000000e+00,-9.799999999999999822e-01,4.014450000000000000e+05
1.148150000000000030e-11,1.000000000000000000e+00,-9.699999999999999734e-01,4.011470000000000000e+05
1.202260000000000089e-11,2.000000000000000000e+00,-9.599999999999999645e-01,4.018300000000000000e+05
1.258930000000000008e-11,1.000000000000000000e+00,-9.499999999999999556e-01,3.995970000000000000e+05
1.318259999999999999e-11,0.000000000000000000e+00,-9.399999999999999467e-01,4.006630000000000000e+05
1.380379999999999981e-11,0.000000000000000000e+00,-9.299999999999999378e-01,3.996050000000000000e+05
1.445439999999999948e-11,0.000000000000000000e+00,-9.199999999999999289e-01,3.996010000000000000e+05
1.513559999999999864e-11,2.000000000000000000e+00,-9.099999999999999201e-01,3.982340000000000000e+05
1.584890000000000045e-11,4.000000000000000000e+00,-8.999999999999999112e-01,3.996290000000000000e+05
1.659590000000000121e-11,1.000000000000000000e+00,-8.899999999999999023e-01,3.991430000000000000e+05
1.737799999999999805e-11,3.000000000000000000e+00,-8.799999999999998934e-01,3.983900000000000000e+05
1.819699999999999930e-11,1.000000000000000000e+00,-8.699999999999998845e-01,3.987690000000000000e+05
1.905459999999999759e-11,3.000000000000000000e+00,-8.599999999999998757e-01,3.988650000000000000e+05
1.995259999999999800e-11,9.900000000000000000e+01,-8.499999999999998668e-01,3.992990000000000000e+05
2.089300000000000155e-11,1.600000000000000000e+01,-8.399999999999998579e-01,3.985930000000000000e+05
2.187759999999999717e-11,1.400000000000000000e+01,-8.299999999999998490e-01,3.997870000000000000e+05
2.290870000000000072e-11,9.000000000000000000e+00,-8.199999999999998401e-01,4.000300000000000000e+05
2.398830000000000028e-11,1.400000000000000000e+01,-8.099999999999998312e-01,3.997140000000000000e+05
2.511890000000000114e-11,1.500000000000000000e+01,-7.999999999999998224e-01,4.014990000000000000e+05
2.630270000000000020e-11,1.000000000000000000e+01,-7.899999999999998135e-01,4.010520000000000000e+05
2.754229999999999907e-11,1.600000000000000000e+01,-7.799999999999998046e-01,4.008560000000000000e+05
2.884029999999999940e-11,1.500000000000000000e+01,-7.699999999999997957e-01,4.008140000000000000e+05
3.019949999999999870e-11,2.200000000000000000e+01,-7.599999999999997868e-01,4.028250000000000000e+05
3.162279999999999729e-11,2.200000000000000000e+01,-7.499999999999997780e-01,4.042320000000000000e+05
3.311310000000000195e-11,2.100000000000000000e+01,-7.399999999999997691e-01,4.067640000000000000e+05
3.467369999999999835e-11,2.200000000000000000e+01,-7.299999999999997602e-01,4.149810000000000000e+05
3.630779999999999843e-11,3.100000000000000000e+01,-7.199999999999997513e-01,4.169790000000000000e+05
3.801889999999999989e-11,2.000000000000000000e+01,-7.099999999999997424e-01,4.192150000000000000e+05
3.981069999999999959e-11,3.100000000000000000e+01,-6.999999999999997335e-01,4.190220000000000000e+05
4.168690000000000082e-11,3.800000000000000000e+01,-6.899999999999997247e-01,4.203560000000000000e+05
4.365159999999999870e-11,3.700000000000000000e+01,-6.799999999999997158e-01,4.198400000000000000e+05
4.570880000000000169e-11,2.000000000000000000e+01,-6.699999999999997069e-01,4.206100000000000000e+05
4.786299999999999669e-11,5.100000000000000000e+01,-6.599999999999996980e-01,4.220170000000000000e+05
5.011869999999999646e-11,4.600000000000000000e+01,-6.499999999999996891e-01,4.227720000000000000e+05
5.248069999999999952e-11,4.300000000000000000e+01,-6.399999999999996803e-01,4.216650000000000000e+05
5.495410000000000310e-11,3.500000000000000000e+01,-6.299999999999996714e-01,4.227710000000000000e+05
5.754400000000000441e-11,4.200000000000000000e+01,-6.199999999999996625e-01,4.230530000000000000e+05
6.025599999999999851e-11,4.800000000000000000e+01,-6.099999999999996536e-01,4.238480000000000000e+05
6.309569999999999337e-11,5.500000000000000000e+01,-5.999999999999996447e-01,4.248410000000000000e+05
6.606930000000000727e-11,7.200000000000000000e+01,-5.899999999999996358e-01,4.247190000000000000e+05
6.918309999999999346e-11,4.600000000000000000e+01,-5.799999999999996270e-01,4.260160000000000000e+05
7.244359999999999476e-11,6.700000000000000000e+01,-5.699999999999996181e-01,4.277060000000000000e+05
7.585780000000000661e-11,7.600000000000000000e+01,-5.599999999999996092e-01,4.271690000000000000e+05
7.943279999999999168e-11,9.000000000000000000e+01,-5.499999999999996003e-01,4.286330000000000000e+05
8.317640000000000655e-11,7.900000000000000000e+01,-5.399999999999995914e-01,4.282650000000000000e+05
8.709639999999999146e-11,7.400000000000000000e+01,-5.299999999999995826e-01,4.308400000000000000e+05
9.120110000000000728e-11,9.300000000000000000e+01,-5.199999999999995737e-01,4.324950000000000000e+05
9.549929999999998991e-11,1.050000000000000000e+02,-5.099999999999995648e-01,4.328300000000000000e+05
1.000000000000000036e-10,1.310000000000000000e+02,-4.999999999999995559e-01,4.371050000000000000e+05
1.047129999999999930e-10,1.270000000000000000e+02,-4.899999999999995470e-01,4.413160000000000000e+05
1.096479999999999997e-10,1.370000000000000000e+02,-4.799999999999995381e-01,4.417370000000000000e+05
1.148150000000000063e-10,1.360000000000000000e+02,-4.699999999999995293e-01,4.422570000000000000e+05
1.202259999999999992e-10,1.560000000000000000e+02,-4.599999999999995204e-01,4.430220000000000000e+05
1.258929999999999912e-10,1.780000000000000000e+02,-4.499999999999995115e-01,4.450040000000000000e+05
1.318260000000000161e-10,1.810000000000000000e+02,-4.399999999999995026e-01,4.443450000000000000e+05
1.380380000000000045e-10,2.190000000000000000e+02,-4.299999999999994937e-01,4.457880000000000000e+05
1.445440000000000077e-10,2.150000000000000000e+02,-4.199999999999994849e-01,4.453530000000000000e+05
1.513559999999999993e-10,2.470000000000000000e+02,-4.099999999999994760e-01,4.461530000000000000e+05
1.584890000000000045e-10,2.220000000000000000e+02,-3.999999999999994671e-01,4.476790000000000000e+05
1.659590000000000056e-10,2.760000000000000000e+02,-3.899999999999994582e-01,4.493050000000000000e+05
1.737800000000000192e-10,2.750000000000000000e+02,-3.799999999999994493e-01,4.492610000000000000e+05
1.819699999999999930e-10,3.380000000000000000e+02,-3.699999999999994404e-01,4.511190000000000000e+05
1.905459999999999953e-10,3.350000000000000000e+02,-3.599999999999994316e-01,4.520300000000000000e+05
1.995259999999999994e-10,3.540000000000000000e+02,-3.499999999999994227e-01,4.525540000000000000e+05
2.089299999999999961e-10,4.040000000000000000e+02,-3.399999999999994138e-01,4.530230000000000000e+05
2.187760000000000105e-10,4.150000000000000000e+02,-3.299999999999994049e-01,4.539540000000000000e+05
2.290870000000000072e-10,4.510000000000000000e+02,-3.199999999999993960e-01,4.549020000000000000e+05
2.398830000000000287e-10,5.340000000000000000e+02,-3.099999999999993872e-01,4.558530000000000000e+05
2.511890000000000308e-10,5.670000000000000000e+02,-2.999999999999993783e-01,4.565370000000000000e+05
2.630269999999999955e-10,5.690000000000000000e+02,-2.899999999999993694e-01,4.610870000000000000e+05
2.754229999999999907e-10,6.030000000000000000e+02,-2.799999999999993605e-01,4.651460000000000000e+05
2.884030000000000328e-10,6.490000000000000000e+02,-2.699999999999993516e-01,4.642100000000000000e+05
3.019949999999999999e-10,7.250000000000000000e+02,-2.599999999999993427e-01,4.643880000000000000e+05
3.162279999999999858e-10,8.150000000000000000e+02,-2.499999999999993339e-01,4.671860000000000000e+05
3.311310000000000325e-10,8.800000000000000000e+02,-2.399999999999993250e-01,4.677150000000000000e+05
3.467370000000000094e-10,8.920000000000000000e+02,-2.299999999999993161e-01,4.691750000000000000e+05
3.630780000000000360e-10,1.042000000000000000e+03,-2.199999999999993072e-01,4.702730000000000000e+05
3.801889999999999989e-10,1.116000000000000000e+03,-2.099999999999992983e-01,4.699270000000000000e+05
3.981069999999999571e-10,1.207000000000000000e+03,-1.999999999999992895e-01,4.692100000000000000e+05
4.168690000000000212e-10,1.318000000000000000e+03,-1.899999999999992806e-01,4.717240000000000000e+05
4.365160000000000258e-10,1.449000000000000000e+03,-1.799999999999992717e-01,4.725300000000000000e+05
4.570880000000000040e-10,1.653000000000000000e+03,-1.699999999999992628e-01,4.737800000000000000e+05
4.786300000000000315e-10,1.669000000000000000e+03,-1.599999999999992539e-01,4.746960000000000000e+05
5.011870000000000809e-10,1.918000000000000000e+03,-1.499999999999992450e-01,4.747040000000000000e+05
5.248069999999999435e-10,2.075000000000000000e+03,-1.399999999999992362e-01,4.770700000000000000e+05
5.495409999999999534e-10,2.346000000000000000e+03,-1.299999999999992273e-01,4.776430000000000000e+05
5.754399999999999278e-10,2.480000000000000000e+03,-1.199999999999992184e-01,4.769930000000000000e+05
6.025600000000000368e-10,2.746000000000000000e+03,-1.099999999999992095e-01,4.795900000000000000e+05
6.309570000000000371e-10,2.940000000000000000e+03,-9.999999999999920064e-02,4.839720000000000000e+05
6.606929999999999435e-10,3.338000000000000000e+03,-8.999999999999919176e-02,4.850810000000000000e+05
6.918309999999999863e-10,3.552000000000000000e+03,-7.999999999999918288e-02,4.875980000000000000e+05
7.244359999999999993e-10,3.920000000000000000e+03,-6.999999999999917399e-02,4.890920000000000000e+05
7.585779999999999627e-10,4.311000000000000000e+03,-5.999999999999916511e-02,4.886180000000000000e+05
7.943279999999999685e-10,4.776000000000000000e+03,-4.999999999999915623e-02,4.909290000000000000e+05
8.317640000000000655e-10,5.341000000000000000e+03,-3.999999999999914735e-02,4.880810000000000000e+05
8.709639999999999921e-10,5.894000000000000000e+03,-2.999999999999913847e-02,4.905930000000000000e+05
9.120110000000000469e-10,6.533000000000000000e+03,-1.999999999999912959e-02,4.906640000000000000e+05
9.549929999999999508e-10,7.019000000000000000e+03,-9.999999999999120703e-03,4.914670000000000000e+05
1.000000000000000062e-09,7.863000000000000000e+03,8.881784197001252323e-16,4.939270000000000000e+05
1.047130000000000085e-09,8.797000000000000000e+03,1.000000000000089706e-02,4.948810000000000000e+05
1.096479999999999919e-09,9.898000000000000000e+03,2.000000000000090594e-02,4.958330000000000000e+05
1.148150000000000011e-09,1.089000000000000000e+04,3.000000000000091482e-02,4.973490000000000000e+05
1.202259999999999941e-09,1.226100000000000000e+04,4.000000000000092371e-02,4.995540000000000000e+05
1.258929999999999912e-09,1.347200000000000000e+04,5.000000000000093259e-02,4.991800000000000000e+05
1.318259999999999954e-09,1.525400000000000000e+04,6.000000000000094147e-02,5.028900000000000000e+05
1.380380000000000149e-09,1.672000000000000000e+04,7.000000000000095035e-02,5.037470000000000000e+05
1.445440000000000129e-09,1.879900000000000000e+04,8.000000000000095923e-02,5.038380000000000000e+05
1.513559999999999889e-09,2.125600000000000000e+04,9.000000000000096811e-02,5.062280000000000000e+05
1.584890000000000097e-09,2.367000000000000000e+04,1.000000000000009770e-01,5.067830000000000000e+05
1.659590000000000056e-09,2.682600000000000000e+04,1.100000000000009859e-01,5.083610000000000000e+05
1.737800000000000141e-09,3.014500000000000000e+04,1.200000000000009948e-01,5.110360000000000000e+05
1.819700000000000034e-09,3.386300000000000000e+04,1.300000000000010036e-01,5.111420000000000000e+05
1.905460000000000159e-09,3.816700000000000000e+04,1.400000000000010125e-01,5.124460000000000000e+05
1.995259999999999994e-09,4.401600000000000000e+04,1.500000000000010214e-01,5.122940000000000000e+05
2.089300000000000219e-09,4.890600000000000000e+04,1.600000000000010303e-01,5.100040000000000000e+05
2.187759999999999898e-09,5.580600000000000000e+04,1.700000000000010392e-01,5.127760000000000000e+05
2.290869999999999969e-09,6.307700000000000000e+04,1.800000000000010481e-01,5.151960000000000000e+05
2.398829999999999667e-09,7.213300000000000000e+04,1.900000000000010569e-01,5.186970000000000000e+05
2.511890000000000101e-09,8.181100000000000000e+04,2.000000000000010658e-01,5.200720000000000000e+05
2.630270000000000265e-09,9.353400000000000000e+04,2.100000000000010747e-01,5.197430000000000000e+05
2.754229999999999907e-09,1.064810000000000000e+05,2.200000000000010836e-01,5.230580000000000000e+05
2.884030000000000018e-09,1.216770000000000000e+05,2.300000000000010925e-01,5.239560000000000000e+05
3.019950000000000102e-09,1.386790000000000000e+05,2.400000000000011013e-01,5.252300000000000000e+05
3.162279999999999961e-09,1.581600000000000000e+05,2.500000000000011102e-01,5.258540000000000000e+05
3.311310000000000221e-09,1.813580000000000000e+05,2.600000000000011191e-01,5.285240000000000000e+05
3.467370000000000197e-09,2.086480000000000000e+05,2.700000000000011280e-01,5.278950000000000000e+05
3.630780000000000153e-09,2.396590000000000000e+05,2.800000000000011369e-01,5.248410000000000000e+05
3.801890000000000403e-09,2.753960000000000000e+05,2.900000000000011458e-01,5.267620000000000000e+05
3.981069999999999364e-09,3.172110000000000000e+05,3.000000000000011546e-01,5.276360000000000000e+05
4.168690000000000418e-09,3.643180000000000000e+05,3.100000000000011635e-01,5.301920000000000000e+05
4.365160000000000258e-09,4.212970000000000000e+05,3.200000000000011724e-01,5.334420000000000000e+05
4.570880000000000660e-09,4.848770000000000000e+05,3.300000000000011813e-01,5.378050000000000000e+05
4.786300000000000315e-09,5.605960000000000000e+05,3.400000000000011902e-01,5.384120000000000000e+05
5.011869999999999568e-09,6.487740000000000000e+05,3.500000000000011990e-01,5.381160000000000000e+05
5.248070000000000056e-09,7.482120000000000000e+05,3.600000000000012079e-01,5.394730000000000000e+05
5.495409999999999741e-09,8.646220000000000000e+05,3.700000000000012168e-01,5.396030000000000000e+05
5.754399999999999898e-09,1.002471000000000000e+06,3.800000000000012257e-01,5.422800000000000000e+05
6.025599999999999541e-09,1.161513000000000000e+06,3.900000000000012346e-01,5.424940000000000000e+05
6.309569999999999337e-09,1.348591000000000000e+06,4.000000000000012434e-01,5.447730000000000000e+05
6.606929999999999228e-09,1.562396000000000000e+06,4.100000000000012523e-01,5.460840000000000000e+05
6.918310000000000690e-09,1.812240000000000000e+06,4.200000000000012612e-01,5.456130000000000000e+05
7.244359999999999993e-09,2.105933000000000000e+06,4.300000000000012701e-01,5.492850000000000000e+05
7.585780000000000247e-09,2.446632000000000000e+06,4.400000000000012790e-01,5.484100000000000000e+05
7.943280000000000305e-09,2.845489000000000000e+06,4.500000000000012879e-01,5.481560000000000000e+05
8.317639999999999827e-09,3.312066000000000000e+06,4.600000000000012967e-01,5.466660000000000000e+05
8.709639999999999301e-09,3.856758000000000000e+06,4.700000000000013056e-01,5.461140000000000000e+05
9.120110000000000263e-09,4.491951000000000000e+06,4.800000000000013145e-01,5.447450000000000000e+05
9.549930000000000336e-09,5.236230000000000000e+06,4.900000000000013234e-01,5.477610000000000000e+05
1.000000000000000021e-08,5.472396000000000000e+06,5.000000000000013323e-01,5.495830000000000000e+05
1.047129999999999961e-08,5.095473000000000000e+06,5.100000000000013411e-01,5.501570000000000000e+05
1.096480000000000002e-08,4.725051000000000000e+06,5.200000000000013500e-01,5.531330000000000000e+05
1.148150000000000094e-08,4.347291000000000000e+06,5.300000000000013589e-01,5.565630000000000000e+05
1.202259999999999941e-08,3.980590000000000000e+06,5.400000000000013678e-01,5.603940000000000000e+05
1.258929999999999912e-08,3.610523000000000000e+06,5.500000000000013767e-01,5.611730000000000000e+05
1.318259999999999954e-08,3.252704000000000000e+06,5.600000000000013856e-01,5.636300000000000000e+05
1.380379999999999983e-08,2.916599000000000000e+06,5.700000000000013944e-01,5.631030000000000000e+05
1.445439999999999839e-08,2.584369000000000000e+06,5.800000000000014033e-01,5.652200000000000000e+05
1.513560000000000220e-08,2.280454000000000000e+06,5.900000000000014122e-01,5.646310000000000000e+05
1.584889999999999973e-08,1.996313000000000000e+06,6.000000000000014211e-01,5.691390000000000000e+05
1.659589999999999973e-08,1.735810000000000000e+06,6.100000000000014300e-01,5.678500000000000000e+05
1.737800000000000182e-08,1.495448000000000000e+06,6.200000000000014388e-01,5.758830000000000000e+05
1.819700000000000075e-08,1.285908000000000000e+06,6.300000000000014477e-01,5.774940000000000000e+05
1.905460000000000242e-08,1.100661000000000000e+06,6.400000000000014566e-01,5.817660000000000000e+05
1.995260000000000160e-08,9.364790000000000000e+05,6.500000000000014655e-01,5.809830000000000000e+05
2.089299999999999723e-08,8.011620000000000000e+05,6.600000000000014744e-01,5.825040000000000000e+05
2.187760000000000063e-08,6.858070000000000000e+05,6.700000000000014833e-01,5.842160000000000000e+05
2.290870000000000052e-08,5.944790000000000000e+05,6.800000000000014921e-01,5.877530000000000000e+05
2.398829999999999915e-08,5.202370000000000000e+05,6.900000000000015010e-01,5.898030000000000000e+05
2.511889999999999936e-08,4.651210000000000000e+05,7.000000000000015099e-01,5.954240000000000000e+05
2.630269999999999769e-08,4.238240000000000000e+05,7.100000000000015188e-01,5.938490000000000000e+05
2.754229999999999907e-08,3.963590000000000000e+05,7.200000000000015277e-01,5.906770000000000000e+05
2.884029999999999852e-08,3.778690000000000000e+05,7.300000000000015365e-01,5.890570000000000000e+05
3.019949999999999854e-08,3.692320000000000000e+05,7.400000000000015454e-01,5.892890000000000000e+05
3.162280000000000044e-08,3.662580000000000000e+05,7.500000000000015543e-01,5.912590000000000000e+05
3.311309999999999890e-08,3.680660000000000000e+05,7.600000000000015632e-01,5.939220000000000000e+05
3.467370000000000032e-08,3.744610000000000000e+05,7.700000000000015721e-01,5.964340000000000000e+05
3.630779999999999905e-08,3.833450000000000000e+05,7.800000000000015810e-01,5.938880000000000000e+05
3.801889999999999907e-08,3.942190000000000000e+05,7.900000000000015898e-01,5.941020000000000000e+05
3.981069999999999530e-08,4.060950000000000000e+05,8.000000000000015987e-01,5.941980000000000000e+05
4.168689999999999591e-08,4.180740000000000000e+05,8.100000000000016076e-01,5.949600000000000000e+05
4.365159999999999762e-08,4.307420000000000000e+05,8.200000000000016165e-01,6.011010000000000000e+05
4.570879999999999833e-08,4.412890000000000000e+05,8.300000000000016254e-01,6.015790000000000000e+05
4.786300000000000315e-08,4.498130000000000000e+05,8.400000000000016342e-01,5.986430000000000000e+05
5.011870000000000396e-08,4.586750000000000000e+05,8.500000000000016431e-01,5.938740000000000000e+05
5.248069999999999559e-08,4.649810000000000000e+05,8.600000000000016520e-01,5.997580000000000000e+05
5.495409999999999576e-08,4.653050000000000000e+05,8.700000000000016609e-01,6.098980000000000000e+05
5.754399999999999567e-08,4.629530000000000000e+05,8.800000000000016698e-01,6.090670000000000000e+05
6.025599999999999375e-08,4.546920000000000000e+05,8.900000000000016787e-01,6.072470000000000000e+05
6.309570000000000826e-08,4.386560000000000000e+05,9.000000000000016875e-01,6.064580000000000000e+05
6.606929999999999724e-08,4.134680000000000000e+05,9.100000000000016964e-01,6.141390000000000000e+05
6.918309999999999698e-08,3.821520000000000000e+05,9.200000000000017053e-01,6.117740000000000000e+05
7.244360000000000159e-08,3.463470000000000000e+05,9.300000000000017142e-01,6.086610000000000000e+05
7.585780000000000578e-08,3.077330000000000000e+05,9.400000000000017231e-01,6.161250000000000000e+05
7.943279999999999644e-08,2.686940000000000000e+05,9.500000000000017319e-01,6.141090000000000000e+05
8.317639999999999827e-08,2.327300000000000000e+05,9.600000000000017408e-01,6.095480000000000000e+05
8.709640000000000955e-08,2.002270000000000000e+05,9.700000000000017497e-01,6.135040000000000000e+05
9.120109999999998939e-08,1.718690000000000000e+05,9.800000000000017586e-01,5.961550000000000000e+05
9.549929999999999012e-08,1.476770000000000000e+05,9.900000000000017675e-01,5.669700000000000000e+05
1.000000000000000087e-07,1.266160000000000000e+05,1.000000000000001776e+00,0.000000000000000000e+00
1.047130000000000060e-07,1.089380000000000000e+05,0.000000000000000000e+00,0.000000000000000000e+00
1.096479999999999903e-07,9.307300000000000000e+04,0.000000000000000000e+00,0.000000000000000000e+00
1.148149999999999994e-07,7.947800000000000000e+04,0.000000000000000000e+00,0.000000000000000000e+00
1.202260000000000073e-07,6.650300000000000000e+04,0.000000000000000000e+00,0.000000000000000000e+00
1.258930000000000011e-07,5.511500000000000000e+04,0.000000000000000000e+00,0.000000000000000000e+00
1.318260000000000053e-07,4.511600000000000000e+04,0.000000000000000000e+00,0.000000000000000000e+00
1.380379999999999818e-07,3.629200000000000000e+04,0.000000000000000000e+00,0.000000000000000000e+00
1.445440000000000005e-07,2.834000000000000000e+04,0.000000000000000000e+00,0.000000000000000000e+00
1.513559999999999956e-07,2.184600000000000000e+04,0.000000000000000000e+00,0.000000000000000000e+00
1.584889999999999841e-07,1.649900000000000000e+04,0.000000000000000000e+00,0.000000000000000000e+00
1.659589999999999841e-07,1.260000000000000000e+04,0.000000000000000000e+00,0.000000000000000000e+00
1.737799999999999851e-07,9.576000000000000000e+03,0.000000000000000000e+00,0.000000000000000000e+00
1.819699999999999810e-07,7.164000000000000000e+03,0.000000000000000000e+00,0.000000000000000000e+00
1.905459999999999911e-07,5.495000000000000000e+03,0.000000000000000000e+00,0.000000000000000000e+00
1.995260000000000093e-07,3.991000000000000000e+03,0.000000000000000000e+00,0.000000000000000000e+00
2.089300000000000054e-07,3.049000000000000000e+03,0.000000000000000000e+00,0.000000000000000000e+00
2.187759999999999997e-07,2.104000000000000000e+03,0.000000000000000000e+00,0.000000000000000000e+00
2.290870000000000184e-07,1.356000000000000000e+03,0.000000000000000000e+00,0.000000000000000000e+00
2.398830000000000312e-07,9.390000000000000000e+02,0.000000000000000000e+00,0.000000000000000000e+00
2.511889999999999870e-07,6.100000000000000000e+02,0.000000000000000000e+00,0.000000000000000000e+00
2.630270000000000166e-07,3.760000000000000000e+02,0.000000000000000000e+00,0.000000000000000000e+00
2.754229999999999907e-07,2.670000000000000000e+02,0.000000000000000000e+00,0.000000000000000000e+00
2.884030000000000448e-07,1.590000000000000000e+02,0.000000000000000000e+00,0.000000000000000000e+00
3.019949999999999987e-07,8.900000000000000000e+01,0.000000000000000000e+00,0.000000000000000000e+00
3.162280000000000177e-07,4.900000000000000000e+01,0.000000000000000000e+00,0.000000000000000000e+00
3.311310000000000023e-07,5.100000000000000000e+01,0.000000000000000000e+00,0.000000000000000000e+00
3.467370000000000164e-07,1.100000000000000000e+01,0.000000000000000000e+00,0.000000000000000000e+00
3.630779999999999905e-07,0.000000000000000000e+00,0.000000000000000000e+00,0.000000000000000000e+00
3.801889999999999907e-07,0.000000000000000000e+00,0.000000000000000000e+00,0.000000000000000000e+00
3.981069999999999794e-07,0.000000000000000000e+00,0.000000000000000000e+00,0.000000000000000000e+00
4.168689999999999723e-07,0.000000000000000000e+00,0.000000000000000000e+00,0.000000000000000000e+00
4.365159999999999894e-07,0.000000000000000000e+00,0.000000000000000000e+00,0.000000000000000000e+00
4.570879999999999700e-07,0.000000000000000000e+00,0.000000000000000000e+00,0.000000000000000000e+00
4.786300000000000448e-07,0.000000000000000000e+00,0.000000000000000000e+00,0.000000000000000000e+00
5.011870000000000263e-07,0.000000000000000000e+00,0.000000000000000000e+00,0.000000000000000000e+00
5.248070000000000221e-07,0.000000000000000000e+00,0.000000000000000000e+00,0.000000000000000000e+00
5.495409999999999576e-07,0.000000000000000000e+00,0.000000000000000000e+00,0.000000000000000000e+00
5.754399999999999700e-07,0.000000000000000000e+00,0.000000000000000000e+00,0.000000000000000000e+00
6.025600000000000169e-07,0.000000000000000000e+00,0.000000000000000000e+00,0.000000000000000000e+00
6.309569999999999502e-07,0.000000000000000000e+00,0.000000000000000000e+00,0.000000000000000000e+00
6.606929999999999989e-07,0.000000000000000000e+00,0.000000000000000000e+00,0.000000000000000000e+00
6.918309999999999962e-07,0.000000000000000000e+00,0.000000000000000000e+00,0.000000000000000000e+00
7.244359999999999365e-07,0.000000000000000000e+00,0.000000000000000000e+00,0.000000000000000000e+00
7.585779999999999519e-07,0.000000000000000000e+00,0.000000000000000000e+00,0.000000000000000000e+00
7.943279999999999908e-07,0.000000000000000000e+00,0.000000000000000000e+00,0.000000000000000000e+00
8.317639999999999827e-07,0.000000000000000000e+00,0.000000000000000000e+00,0.000000000000000000e+00
8.709639999999999632e-07,0.000000000000000000e+00,0.000000000000000000e+00,0.000000000000000000e+00
9.120109999999999998e-07,0.000000000000000000e+00,0.000000000000000000e+00,0.000000000000000000e+00
9.549929999999999806e-07,0.000000000000000000e+00,0.000000000000000000e+00,0.000000000000000000e+00
9.999999999999999547e-07,0.000000000000000000e+00,0.000000000000000000e+00,0.000000000000000000e+00
1.047129999999999875e-06,0.000000000000000000e+00,0.000000000000000000e+00,0.000000000000000000e+00
1.096479999999999876e-06,0.000000000000000000e+00,0.000000000000000000e+00,0.000000000000000000e+00
1.148149999999999968e-06,0.000000000000000000e+00,0.000000000000000000e+00,0.000000000000000000e+00
1.202260000000000073e-06,0.000000000000000000e+00,0.000000000000000000e+00,0.000000000000000000e+00
1.258930000000000117e-06,0.000000000000000000e+00,0.000000000000000000e+00,0.000000000000000000e+00
1.318259999999999894e-06,0.000000000000000000e+00,0.000000000000000000e+00,0.000000000000000000e+00
1.380380000000000030e-06,0.000000000000000000e+00,0.000000000000000000e+00,0.000000000000000000e+00
1.445440000000000005e-06,0.000000000000000000e+00,0.000000000000000000e+00,0.000000000000000000e+00
1.513559999999999956e-06,0.000000000000000000e+00,0.000000000000000000e+00,0.000000000000000000e+00
1.584889999999999999e-06,0.000000000000000000e+00,0.000000000000000000e+00,0.000000000000000000e+00
1.659589999999999894e-06,0.000000000000000000e+00,0.000000000000000000e+00,0.000000000000000000e+00
1.737800000000000116e-06,0.000000000000000000e+00,0.000000000000000000e+00,0.000000000000000000e+00
1.819700000000000128e-06,0.000000000000000000e+00,0.000000000000000000e+00,0.000000000000000000e+00
1.905459999999999964e-06,0.000000000000000000e+00,0.000000000000000000e+00,0.000000000000000000e+00
1.995259999999999935e-06,0.000000000000000000e+00,0.000000000000000000e+00,0.000000000000000000e+00
2.089300000000000054e-06,0.000000000000000000e+00,0.000000000000000000e+00,0.000000000000000000e+00
2.187759999999999786e-06,0.000000000000000000e+00,0.000000000000000000e+00,0.000000000000000000e+00
2.290869999999999972e-06,0.000000000000000000e+00,0.000000000000000000e+00,0.000000000000000000e+00
2.398829999999999782e-06,0.000000000000000000e+00,0.000000000000000000e+00,0.000000000000000000e+00
2.511890000000000187e-06,0.000000000000000000e+00,0.000000000000000000e+00,0.000000000000000000e+00
2.630270000000000060e-06,0.000000000000000000e+00,0.000000000000000000e+00,0.000000000000000000e+00
2.754230000000000225e-06,0.000000000000000000e+00,0.000000000000000000e+00,0.000000000000000000e+00
2.884030000000000236e-06,0.000000000000000000e+00,0.000000000000000000e+00,0.000000000000000000e+00
3.019950000000000198e-06,0.000000000000000000e+00,0.000000000000000000e+00,0.000000000000000000e+00
3.162280000000000071e-06,0.000000000000000000e+00,0.000000000000000000e+00,0.000000000000000000e+00
3.311310000000000235e-06,0.000000000000000000e+00,0.000000000000000000e+00,0.000000000000000000e+00
3.467369999999999635e-06,0.000000000000000000e+00,0.000000000000000000e+00,0.000000000000000000e+00
3.630780000000000328e-06,0.000000000000000000e+00,0.000000000000000000e+00,0.000000000000000000e+00
3.801890000000000118e-06,0.000000000000000000e+00,0.000000000000000000e+00,0.000000000000000000e+00
3.981069999999999477e-06,0.000000000000000000e+00,0.000000000000000000e+00,0.000000000000000000e+00
4.168689999999999723e-06,0.000000000000000000e+00,0.000000000000000000e+00,0.000000000000000000e+00
4.365160000000000741e-06,0.000000000000000000e+00,0.000000000000000000e+00,0.000000000000000000e+00
4.570880000000000018e-06,0.000000000000000000e+00,0.000000000000000000e+00,0.000000000000000000e+00
4.786299999999999389e-06,0.000000000000000000e+00,0.000000000000000000e+00,0.000000000000000000e+00
5.011869999999999840e-06,0.000000000000000000e+00,0.000000000000000000e+00,0.000000000000000000e+00
5.248070000000000221e-06,0.000000000000000000e+00,0.000000000000000000e+00,0.000000000000000000e+00
5.495409999999999787e-06,0.000000000000000000e+00,0.000000000000000000e+00,0.000000000000000000e+00
5.754400000000000335e-06,0.000000000000000000e+00,0.000000000000000000e+00,0.000000000000000000e+00
6.025599999999999534e-06,0.000000000000000000e+00,0.000000000000000000e+00,0.000000000000000000e+00
6.309570000000000137e-06,0.000000000000000000e+00,0.000000000000000000e+00,0.000000000000000000e+00
6.606929999999999777e-06,0.000000000000000000e+00,0.000000000000000000e+00,0.000000000000000000e+00
6.918310000000000174e-06,0.000000000000000000e+00,0.000000000000000000e+00,0.000000000000000000e+00
7.244360000000000212e-06,0.000000000000000000e+00,0.000000000000000000e+00,0.000000000000000000e+00
7.585779999999999731e-06,0.000000000000000000e+00,0.000000000000000000e+00,0.000000000000000000e+00
7.943279999999999273e-06,0.000000000000000000e+00,0.000000000000000000e+00,0.000000000000000000e+00
8.317640000000000886e-06,0.000000000000000000e+00,0.000000000000000000e+00,0.000000000000000000e+00
8.709639999999999844e-06,0.000000000000000000e+00,0.000000000000000000e+00,0.000000000000000000e+00
9.120109999999999998e-06,0.000000000000000000e+00,0.000000000000000000e+00,0.000000000000000000e+00
9.549930000000000230e-06,0.000000000000000000e+00,0.000000000000000000e+00,0.000000000000000000e+00
1.000000000000000082e-05,0.000000000000000000e+00,0.000000000000000000e+00,0.000000000000000000e+00
1.047129999999999917e-05,0.000000000000000000e+00,0.000000000000000000e+00,0.000000000000000000e+00
1.096480000000000046e-05,0.000000000000000000e+00,0.000000000000000000e+00,0.000000000000000000e+00
1.148150000000000010e-05,0.000000000000000000e+00,0.000000000000000000e+00,0.000000000000000000e+00
1.202260000000000073e-05,0.000000000000000000e+00,0.000000000000000000e+00,0.000000000000000000e+00
1.258929999999999990e-05,0.000000000000000000e+00,0.000000000000000000e+00,0.000000000000000000e+00
1.318260000000000148e-05,0.000000000000000000e+00,0.000000000000000000e+00,0.000000000000000000e+00
1.380380000000000157e-05,0.000000000000000000e+00,0.000000000000000000e+00,0.000000000000000000e+00
1.445440000000000005e-05,0.000000000000000000e+00,0.000000000000000000e+00,0.000000000000000000e+00
1.513559999999999956e-05,0.000000000000000000e+00,0.000000000000000000e+00,0.000000000000000000e+00
1.584889999999999999e-05,0.000000000000000000e+00,0.000000000000000000e+00,0.000000000000000000e+00
1.659590000000000148e-05,0.000000000000000000e+00,0.000000000000000000e+00,0.000000000000000000e+00
1.737799999999999862e-05,0.000000000000000000e+00,0.000000000000000000e+00,0.000000000000000000e+00
1.819699999999999874e-05,0.000000000000000000e+00,0.000000000000000000e+00,0.000000000000000000e+00
1.905460000000000218e-05,0.000000000000000000e+00,0.000000000000000000e+00,0.000000000000000000e+00
1.995259999999999935e-05,0.000000000000000000e+00,0.000000000000000000e+00,0.000000000000000000e+00
2.089300000000000139e-05,0.000000000000000000e+00,0.000000000000000000e+00,0.000000000000000000e+00
2.187760000000000209e-05,0.000000000000000000e+00,0.000000000000000000e+00,0.000000000000000000e+00
2.290869999999999972e-05,0.000000000000000000e+00,0.000000000000000000e+00,0.000000000000000000e+00
2.398829999999999867e-05,0.000000000000000000e+00,0.000000000000000000e+00,0.000000000000000000e+00
2.511890000000000103e-05,0.000000000000000000e+00,0.000000000000000000e+00,0.000000000000000000e+00
2.630270000000000145e-05,0.000000000000000000e+00,0.000000000000000000e+00,0.000000000000000000e+00
2.754230000000000225e-05,0.000000000000000000e+00,0.000000000000000000e+00,0.000000000000000000e+00
2.884029999999999897e-05,0.000000000000000000e+00,0.000000000000000000e+00,0.000000000000000000e+00
3.019950000000000114e-05,0.000000000000000000e+00,0.000000000000000000e+00,0.000000000000000000e+00
3.162280000000000494e-05,0.000000000000000000e+00,0.000000000000000000e+00,0.000000000000000000e+00
3.311309999999999980e-05,0.000000000000000000e+00,0.000000000000000000e+00,0.000000000000000000e+00
3.467369999999999974e-05,0.000000000000000000e+00,0.000000000000000000e+00,0.000000000000000000e+00
3.630779999999999820e-05,0.000000000000000000e+00,0.000000000000000000e+00,0.000000000000000000e+00
3.801890000000000288e-05,0.000000000000000000e+00,0.000000000000000000e+00,0.000000000000000000e+00
3.981069999999999477e-05,0.000000000000000000e+00,0.000000000000000000e+00,0.000000000000000000e+00
4.168690000000000232e-05,0.000000000000000000e+00,0.000000000000000000e+00,0.000000000000000000e+00
4.365160000000000063e-05,0.000000000000000000e+00,0.000000000000000000e+00,0.000000000000000000e+00
4.570879999999999849e-05,0.000000000000000000e+00,0.000000000000000000e+00,0.000000000000000000e+00
4.786299999999999897e-05,0.000000000000000000e+00,0.000000000000000000e+00,0.000000000000000000e+00
5.011869999999999840e-05,0.000000000000000000e+00,0.000000000000000000e+00,0.000000000000000000e+00
5.248070000000000052e-05,0.000000000000000000e+00,0.000000000000000000e+00,0.000000000000000000e+00
5.495409999999999618e-05,0.000000000000000000e+00,0.000000000000000000e+00,0.000000000000000000e+00
5.754399999999999657e-05,0.000000000000000000e+00,0.000000000000000000e+00,0.000000000000000000e+00
6.025600000000000042e-05,0.000000000000000000e+00,0.000000000000000000e+00,0.000000000000000000e+00
6.309569999999999968e-05,0.000000000000000000e+00,0.000000000000000000e+00,0.000000000000000000e+00
6.606930000000000116e-05,0.000000000000000000e+00,0.000000000000000000e+00,0.000000000000000000e+00
6.918309999999999835e-05,0.000000000000000000e+00,0.000000000000000000e+00,0.000000000000000000e+00
7.244359999999999873e-05,0.000000000000000000e+00,0.000000000000000000e+00,0.000000000000000000e+00
7.585780000000000409e-05,0.000000000000000000e+00,0.000000000000000000e+00,0.000000000000000000e+00
7.943279999999999612e-05,0.000000000000000000e+00,0.000000000000000000e+00,0.000000000000000000e+00
8.317640000000000547e-05,0.000000000000000000e+00,0.000000000000000000e+00,0.000000000000000000e+00
8.709640000000000860e-05,0.000000000000000000e+00,0.000000000000000000e+00,0.000000000000000000e+00
9.120110000000000337e-05,0.000000000000000000e+00,0.000000000000000000e+00,0.000000000000000000e+00
9.549930000000000907e-05,0.000000000000000000e+00,0.000000000000000000e+00,0.000000000000000000e+00
1.000000000000000048e-04,0.000000000000000000e+00,0.000000000000000000e+00,0.000000000000000000e+00
1.047129999999999985e-04,0.000000000000000000e+00,0.000000000000000000e+00,0.000000000000000000e+00
1.096479999999999910e-04,0.000000000000000000e+00,0.000000000000000000e+00,0.000000000000000000e+00
1.148150000000000044e-04,0.000000000000000000e+00,0.000000000000000000e+00,0.000000000000000000e+00
1.202259999999999971e-04,0.000000000000000000e+00,0.000000000000000000e+00,0.000000000000000000e+00
1.258929999999999956e-04,0.000000000000000000e+00,0.000000000000000000e+00,0.000000000000000000e+00
1.318259999999999810e-04,0.000000000000000000e+00,0.000000000000000000e+00,0.000000000000000000e+00
1.380380000000000224e-04,0.000000000000000000e+00,0.000000000000000000e+00,0.000000000000000000e+00
1.445440000000000039e-04,0.000000000000000000e+00,0.000000000000000000e+00,0.000000000000000000e+00
1.513560000000000057e-04,0.000000000000000000e+00,0.000000000000000000e+00,0.000000000000000000e+00
1.584889999999999932e-04,0.000000000000000000e+00,0.000000000000000000e+00,0.000000000000000000e+00
1.659590000000000013e-04,0.000000000000000000e+00,0.000000000000000000e+00,0.000000000000000000e+00
1.737800000000000065e-04,0.000000000000000000e+00,0.000000000000000000e+00,0.000000000000000000e+00
1.819699999999999942e-04,0.000000000000000000e+00,0.000000000000000000e+00,0.000000000000000000e+00
1.905459999999999880e-04,0.000000000000000000e+00,0.000000000000000000e+00,0.000000000000000000e+00
1.995260000000000002e-04,0.000000000000000000e+00,0.000000000000000000e+00,0.000000000000000000e+00
2.089299999999999935e-04,0.000000000000000000e+00,0.000000000000000000e+00,0.000000000000000000e+00
2.187760000000000074e-04,0.000000000000000000e+00,0.000000000000000000e+00,0.000000000000000000e+00
2.290869999999999972e-04,0.000000000000000000e+00,0.000000000000000000e+00,0.000000000000000000e+00
2.398830000000000070e-04,0.000000000000000000e+00,0.000000000000000000e+00,0.000000000000000000e+00
2.511889999999999696e-04,0.000000000000000000e+00,0.000000000000000000e+00,0.000000000000000000e+00
2.630269999999999874e-04,0.000000000000000000e+00,0.000000000000000000e+00,0.000000000000000000e+00
2.754230000000000090e-04,0.000000000000000000e+00,0.000000000000000000e+00,0.000000000000000000e+00
2.884030000000000100e-04,0.000000000000000000e+00,0.000000000000000000e+00,0.000000000000000000e+00
3.019949999999999978e-04,0.000000000000000000e+00,0.000000000000000000e+00,0.000000000000000000e+00
3.162279999999999952e-04,0.000000000000000000e+00,0.000000000000000000e+00,0.000000000000000000e+00
3.311309999999999709e-04,0.000000000000000000e+00,0.000000000000000000e+00,0.000000000000000000e+00
3.467370000000000109e-04,0.000000000000000000e+00,0.000000000000000000e+00,0.000000000000000000e+00
3.630779999999999685e-04,0.000000000000000000e+00,0.000000000000000000e+00,0.000000000000000000e+00
3.801890000000000152e-04,0.000000000000000000e+00,0.000000000000000000e+00,0.000000000000000000e+00
3.981070000000000290e-04,0.000000000000000000e+00,0.000000000000000000e+00,0.000000000000000000e+00
4.168690000000000503e-04,0.000000000000000000e+00,0.000000000000000000e+00,0.000000000000000000e+00
4.365160000000000199e-04,0.000000000000000000e+00,0.000000000000000000e+00,0.000000000000000000e+00
4.570880000000000255e-04,0.000000000000000000e+00,0.000000000000000000e+00,0.000000000000000000e+00
4.786300000000000168e-04,0.000000000000000000e+00,0.000000000000000000e+00,0.000000000000000000e+00
5.011870000000000517e-04,0.000000000000000000e+00,0.000000000000000000e+00,0.000000000000000000e+00
5.248069999999999645e-04,0.000000000000000000e+00,0.000000000000000000e+00,0.000000000000000000e+00
5.495410000000000702e-04,0.000000000000000000e+00,0.000000000000000000e+00,0.000000000000000000e+00
5.754400000000000877e-04,0.000000000000000000e+00,0.000000000000000000e+00,0.000000000000000000e+00
6.025599999999999229e-04,0.000000000000000000e+00,0.000000000000000000e+00,0.000000000000000000e+00
6.309570000000000239e-04,0.000000000000000000e+00,0.000000000000000000e+00,0.000000000000000000e+00
6.606929999999999574e-04,0.000000000000000000e+00,0.000000000000000000e+00,0.000000000000000000e+00
6.918310000000000648e-04,0.000000000000000000e+00,0.000000000000000000e+00,0.000000000000000000e+00
7.244360000000000686e-04,0.000000000000000000e+00,0.000000000000000000e+00,0.000000000000000000e+00
7.585779999999999867e-04,0.000000000000000000e+00,0.000000000000000000e+00,0.000000000000000000e+00
7.943279999999999612e-04,0.000000000000000000e+00,0.000000000000000000e+00,0.000000000000000000e+00
8.317640000000000276e-04,0.000000000000000000e+00,0.000000000000000000e+00,0.000000000000000000e+00
8.709640000000000047e-04,0.000000000000000000e+00,0.000000000000000000e+00,0.000000000000000000e+00
9.120110000000000066e-04,0.000000000000000000e+00,0.000000000000000000e+00,0.000000000000000000e+00
9.549930000000000094e-04,0.000000000000000000e+00,0.000000000000000000e+00,0.000000000000000000e+00
1.000000000000000021e-03,0.000000000000000000e+00,0.000000000000000000e+00,0.000000000000000000e+00
1.047130000000000066e-03,0.000000000000000000e+00,0.000000000000000000e+00,0.000000000000000000e+00
1.096479999999999937e-03,0.000000000000000000e+00,0.000000000000000000e+00,0.000000000000000000e+00
1.148150000000000125e-03,0.000000000000000000e+00,0.000000000000000000e+00,0.000000000000000000e+00
1.202259999999999917e-03,0.000000000000000000e+00,0.000000000000000000e+00,0.000000000000000000e+00
1.258930000000000118e-03,0.000000000000000000e+00,0.000000000000000000e+00,0.000000000000000000e+00
1.318259999999999918e-03,0.000000000000000000e+00,0.000000000000000000e+00,0.000000000000000000e+00
1.380380000000000062e-03,0.000000000000000000e+00,0.000000000000000000e+00,0.000000000000000000e+00
1.445440000000000093e-03,0.000000000000000000e+00,0.000000000000000000e+00,0.000000000000000000e+00
1.513559999999999949e-03,0.000000000000000000e+00,0.000000000000000000e+00,0.000000000000000000e+00
1.584890000000000040e-03,0.000000000000000000e+00,0.000000000000000000e+00,0.000000000000000000e+00
1.659589999999999850e-03,0.000000000000000000e+00,0.000000000000000000e+00,0.000000000000000000e+00
1.737799999999999848e-03,0.000000000000000000e+00,0.000000000000000000e+00,0.000000000000000000e+00
1.819700000000000050e-03,0.000000000000000000e+00,0.000000000000000000e+00,0.000000000000000000e+00
1.905460000000000096e-03,0.000000000000000000e+00,0.000000000000000000e+00,0.000000000000000000e+00
1.995260000000000002e-03,0.000000000000000000e+00,0.000000000000000000e+00,0.000000000000000000e+00
2.089300000000000098e-03,0.000000000000000000e+00,0.000000000000000000e+00,0.000000000000000000e+00
2.187760000000000399e-03,0.000000000000000000e+00,0.000000000000000000e+00,0.000000000000000000e+00
2.290869999999999972e-03,0.000000000000000000e+00,0.000000000000000000e+00,0.000000000000000000e+00
2.398829999999999799e-03,0.000000000000000000e+00,0.000000000000000000e+00,0.000000000000000000e+00
2.511889999999999696e-03,0.000000000000000000e+00,0.000000000000000000e+00,0.000000000000000000e+00
2.630270000000000091e-03,0.000000000000000000e+00,0.000000000000000000e+00,0.000000000000000000e+00
2.754229999999999873e-03,0.000000000000000000e+00,0.000000000000000000e+00,0.000000000000000000e+00
2.884030000000000100e-03,0.000000000000000000e+00,0.000000000000000000e+00,0.000000000000000000e+00
3.019949999999999978e-03,0.000000000000000000e+00,0.000000000000000000e+00,0.000000000000000000e+00
3.162280000000000386e-03,0.000000000000000000e+00,0.000000000000000000e+00,0.000000000000000000e+00
3.311310000000000035e-03,0.000000000000000000e+00,0.000000000000000000e+00,0.000000000000000000e+00
3.467370000000000001e-03,0.000000000000000000e+00,0.000000000000000000e+00,0.000000000000000000e+00
3.630780000000000118e-03,0.000000000000000000e+00,0.000000000000000000e+00,0.000000000000000000e+00
3.801890000000000044e-03,0.000000000000000000e+00,0.000000000000000000e+00,0.000000000000000000e+00
3.981069999999999748e-03,0.000000000000000000e+00,0.000000000000000000e+00,0.000000000000000000e+00
4.168689999999999202e-03,0.000000000000000000e+00,0.000000000000000000e+00,0.000000000000000000e+00
4.365159999999999874e-03,0.000000000000000000e+00,0.000000000000000000e+00,0.000000000000000000e+00
4.570880000000000255e-03,0.000000000000000000e+00,0.000000000000000000e+00,0.000000000000000000e+00
4.786300000000000276e-03,0.000000000000000000e+00,0.000000000000000000e+00,0.000000000000000000e+00
5.011869999999999867e-03,0.000000000000000000e+00,0.000000000000000000e+00,0.000000000000000000e+00
5.248069999999999645e-03,0.000000000000000000e+00,0.000000000000000000e+00,0.000000000000000000e+00
5.495410000000000052e-03,0.000000000000000000e+00,0.000000000000000000e+00,0.000000000000000000e+00
5.754399999999999793e-03,0.000000000000000000e+00,0.000000000000000000e+00,0.000000000000000000e+00
6.025600000000000747e-03,0.000000000000000000e+00,0.000000000000000000e+00,0.000000000000000000e+00
6.309569999999999589e-03,0.000000000000000000e+00,0.000000000000000000e+00,0.000000000000000000e+00
6.606930000000000441e-03,0.000000000000000000e+00,0.000000000000000000e+00,0.000000000000000000e+00
6.918310000000000431e-03,0.000000000000000000e+00,0.000000000000000000e+00,0.000000000000000000e+00
7.244360000000000036e-03,0.000000000000000000e+00,0.000000000000000000e+00,0.000000000000000000e+00
7.585779999999999433e-03,0.000000000000000000e+00,0.000000000000000000e+00,0.000000000000000000e+00
7.943280000000000479e-03,0.000000000000000000e+00,0.000000000000000000e+00,0.000000000000000000e+00
8.317639999999999409e-03,0.000000000000000000e+00,0.000000000000000000e+00,0.000000000000000000e+00
8.709639999999999396e-03,0.000000000000000000e+00,0.000000000000000000e+00,0.000000000000000000e+00
9.120110000000000716e-03,0.000000000000000000e+00,0.000000000000000000e+00,0.000000000000000000e+00
9.549929999999999877e-03,0.000000000000000000e+00,0.000000000000000000e+00,0.000000000000000000e+00
1.000000000000000021e-02,0.000000000000000000e+00,0.000000000000000000e+00,0.000000000000000000e+00
1.047129999999999936e-02,0.000000000000000000e+00,0.000000000000000000e+00,0.000000000000000000e+00
1.096479999999999851e-02,0.000000000000000000e+00,0.000000000000000000e+00,0.000000000000000000e+00
1.148150000000000039e-02,0.000000000000000000e+00,0.000000000000000000e+00,0.000000000000000000e+00
1.202259999999999961e-02,0.000000000000000000e+00,0.000000000000000000e+00,0.000000000000000000e+00
1.258929999999999945e-02,0.000000000000000000e+00,0.000000000000000000e+00,0.000000000000000000e+00
1.318260000000000091e-02,0.000000000000000000e+00,0.000000000000000000e+00,0.000000000000000000e+00
1.380379999999999975e-02,0.000000000000000000e+00,0.000000000000000000e+00,0.000000000000000000e+00
1.445439999999999919e-02,0.000000000000000000e+00,0.000000000000000000e+00,0.000000000000000000e+00
1.513560000000000079e-02,0.000000000000000000e+00,0.000000000000000000e+00,0.000000000000000000e+00
1.584889999999999910e-02,0.000000000000000000e+00,0.000000000000000000e+00,0.000000000000000000e+00
1.659590000000000024e-02,0.000000000000000000e+00,0.000000000000000000e+00,0.000000000000000000e+00
1.737800000000000109e-02,0.000000000000000000e+00,0.000000000000000000e+00,0.000000000000000000e+00
1.819700000000000137e-02,0.000000000000000000e+00,0.000000000000000000e+00,0.000000000000000000e+00
1.905459999999999793e-02,0.000000000000000000e+00,0.000000000000000000e+00,0.000000000000000000e+00
1.995259999999999742e-02,0.000000000000000000e+00,0.000000000000000000e+00,0.000000000000000000e+00
2.089299999999999838e-02,0.000000000000000000e+00,0.000000000000000000e+00,0.000000000000000000e+00
2.187759999999999705e-02,0.000000000000000000e+00,0.000000000000000000e+00,0.000000000000000000e+00
2.290870000000000059e-02,0.000000000000000000e+00,0.000000000000000000e+00,0.000000000000000000e+00
2.398830000000000059e-02,0.000000000000000000e+00,0.000000000000000000e+00,0.000000000000000000e+00
2.511890000000000303e-02,0.000000000000000000e+00,0.000000000000000000e+00,0.000000000000000000e+00
2.630270000000000177e-02,0.000000000000000000e+00,0.000000000000000000e+00,0.000000000000000000e+00
2.754229999999999873e-02,0.000000000000000000e+00,0.000000000000000000e+00,0.000000000000000000e+00
2.884029999999999927e-02,0.000000000000000000e+00,0.000000000000000000e+00,0.000000000000000000e+00
3.019950000000000065e-02,0.000000000000000000e+00,0.000000000000000000e+00,0.000000000000000000e+00
3.162279999999999952e-02,0.000000000000000000e+00,0.000000000000000000e+00,0.000000000000000000e+00
3.311309999999999948e-02,0.000000000000000000e+00,0.000000000000000000e+00,0.000000000000000000e+00
3.467369999999999480e-02,0.000000000000000000e+00,0.000000000000000000e+00,0.000000000000000000e+00
3.630780000000000118e-02,0.000000000000000000e+00,0.000000000000000000e+00,0.000000000000000000e+00
3.801890000000000130e-02,0.000000000000000000e+00,0.000000000000000000e+00,0.000000000000000000e+00
3.981069999999999748e-02,0.000000000000000000e+00,0.000000000000000000e+00,0.000000000000000000e+00
4.168689999999999896e-02,0.000000000000000000e+00,0.000000000000000000e+00,0.000000000000000000e+00
4.365159999999999874e-02,0.000000000000000000e+00,0.000000000000000000e+00,0.000000000000000000e+00
4.570880000000000082e-02,0.000000000000000000e+00,0.000000000000000000e+00,0.000000000000000000e+00
4.786300000000000276e-02,0.000000000000000000e+00,0.000000000000000000e+00,0.000000000000000000e+00
5.011869999999999520e-02,0.000000000000000000e+00,0.000000000000000000e+00,0.000000000000000000e+00
5.248069999999999818e-02,0.000000000000000000e+00,0.000000000000000000e+00,0.000000000000000000e+00
5.495409999999999878e-02,0.000000000000000000e+00,0.000000000000000000e+00,0.000000000000000000e+00
5.754399999999999793e-02,0.000000000000000000e+00,0.000000000000000000e+00,0.000000000000000000e+00
6.025599999999999706e-02,0.000000000000000000e+00,0.000000000000000000e+00,0.000000000000000000e+00
6.309569999999999068e-02,0.000000000000000000e+00,0.000000000000000000e+00,0.000000000000000000e+00
6.606929999999999747e-02,0.000000000000000000e+00,0.000000000000000000e+00,0.000000000000000000e+00
6.918310000000001125e-02,0.000000000000000000e+00,0.000000000000000000e+00,0.000000000000000000e+00
7.244360000000001076e-02,0.000000000000000000e+00,0.000000000000000000e+00,0.000000000000000000e+00
7.585780000000000300e-02,0.000000000000000000e+00,0.000000000000000000e+00,0.000000000000000000e+00
7.943279999999999785e-02,0.000000000000000000e+00,0.000000000000000000e+00,0.000000000000000000e+00
8.317639999999999756e-02,0.000000000000000000e+00,0.000000000000000000e+00,0.000000000000000000e+00
8.709639999999999049e-02,0.000000000000000000e+00,0.000000000000000000e+00,0.000000000000000000e+00
9.120110000000000716e-02,0.000000000000000000e+00,0.000000000000000000e+00,0.000000000000000000e+00
9.549930000000000918e-02,0.000000000000000000e+00,0.000000000000000000e+00,0.000000000000000000e+00
1.000000000000000056e-01,0.000000000000000000e+00,0.000000000000000000e+00,0.000000000000000000e+00
1.047130000000000005e-01,0.000000000000000000e+00,0.000000000000000000e+00,0.000000000000000000e+00
1.096479999999999955e-01,0.000000000000000000e+00,0.000000000000000000e+00,0.000000000000000000e+00
1.148150000000000004e-01,0.000000000000000000e+00,0.000000000000000000e+00,0.000000000000000000e+00
1.202259999999999995e-01,0.000000000000000000e+00,0.000000000000000000e+00,0.000000000000000000e+00
1.258930000000000049e-01,0.000000000000000000e+00,0.000000000000000000e+00,0.000000000000000000e+00
1.318259999999999987e-01,0.000000000000000000e+00,0.000000000000000000e+00,0.000000000000000000e+00
1.380379999999999940e-01,0.000000000000000000e+00,0.000000000000000000e+00,0.000000000000000000e+00
1.445440000000000058e-01,0.000000000000000000e+00,0.000000000000000000e+00,0.000000000000000000e+00
1.513559999999999905e-01,0.000000000000000000e+00,0.000000000000000000e+00,0.000000000000000000e+00
1.584889999999999910e-01,0.000000000000000000e+00,0.000000000000000000e+00,0.000000000000000000e+00
1.659589999999999954e-01,0.000000000000000000e+00,0.000000000000000000e+00,0.000000000000000000e+00
1.737799999999999900e-01,0.000000000000000000e+00,0.000000000000000000e+00,0.000000000000000000e+00
1.819699999999999929e-01,0.000000000000000000e+00,0.000000000000000000e+00,0.000000000000000000e+00
1.905459999999999932e-01,0.000000000000000000e+00,0.000000000000000000e+00,0.000000000000000000e+00
1.995260000000000089e-01,0.000000000000000000e+00,0.000000000000000000e+00,0.000000000000000000e+00
2.089300000000000046e-01,0.000000000000000000e+00,0.000000000000000000e+00,0.000000000000000000e+00
2.187759999999999982e-01,0.000000000000000000e+00,0.000000000000000000e+00,0.000000000000000000e+00
2.290870000000000128e-01,0.000000000000000000e+00,0.000000000000000000e+00,0.000000000000000000e+00
2.398830000000000129e-01,0.000000000000000000e+00,0.000000000000000000e+00,0.000000000000000000e+00
2.511889999999999956e-01,0.000000000000000000e+00,0.000000000000000000e+00,0.000000000000000000e+00
2.630270000000000108e-01,0.000000000000000000e+00,0.000000000000000000e+00,0.000000000000000000e+00
2.754229999999999734e-01,0.000000000000000000e+00,0.000000000000000000e+00,0.000000000000000000e+00
2.884030000000000205e-01,0.000000000000000000e+00,0.000000000000000000e+00,0.000000000000000000e+00
3.019950000000000134e-01,0.000000000000000000e+00,0.000000000000000000e+00,0.000000000000000000e+00
3.162280000000000091e-01,0.000000000000000000e+00,0.000000000000000000e+00,0.000000000000000000e+00
3.311310000000000087e-01,0.000000000000000000e+00,0.000000000000000000e+00,0.000000000000000000e+00
3.467370000000000174e-01,0.000000000000000000e+00,0.000000000000000000e+00,0.000000000000000000e+00
3.630780000000000118e-01,0.000000000000000000e+00,0.000000000000000000e+00,0.000000000000000000e+00
3.801889999999999992e-01,0.000000000000000000e+00,0.000000000000000000e+00,0.000000000000000000e+00
3.981069999999999887e-01,0.000000000000000000e+00,0.000000000000000000e+00,0.000000000000000000e+00
4.168689999999999896e-01,0.000000000000000000e+00,0.000000000000000000e+00,0.000000000000000000e+00
4.365160000000000151e-01,0.000000000000000000e+00,0.000000000000000000e+00,0.000000000000000000e+00
4.570879999999999943e-01,0.000000000000000000e+00,0.000000000000000000e+00,0.000000000000000000e+00
4.786299999999999999e-01,0.000000000000000000e+00,0.000000000000000000e+00,0.000000000000000000e+00
5.011870000000000491e-01,0.000000000000000000e+00,0.000000000000000000e+00,0.000000000000000000e+00
5.248070000000000235e-01,0.000000000000000000e+00,0.000000000000000000e+00,0.000000000000000000e+00
5.495409999999999462e-01,0.000000000000000000e+00,0.000000000000000000e+00,0.000000000000000000e+00
5.754399999999999515e-01,0.000000000000000000e+00,0.000000000000000000e+00,0.000000000000000000e+00
6.025599999999999845e-01,0.000000000000000000e+00,0.000000000000000000e+00,0.000000000000000000e+00
6.309569999999999901e-01,0.000000000000000000e+00,0.000000000000000000e+00,0.000000000000000000e+00
6.606929999999999747e-01,0.000000000000000000e+00,0.000000000000000000e+00,0.000000000000000000e+00
6.918309999999999738e-01,0.000000000000000000e+00,0.000000000000000000e+00,0.000000000000000000e+00
7.244359999999999689e-01,0.000000000000000000e+00,0.000000000000000000e+00,0.000000000000000000e+00
7.585779999999999745e-01,0.000000000000000000e+00,0.000000000000000000e+00,0.000000000000000000e+00
7.943280000000000340e-01,0.000000000000000000e+00,0.000000000000000000e+00,0.000000000000000000e+00
8.317639999999999478e-01,0.000000000000000000e+00,0.000000000000000000e+00,0.000000000000000000e+00
8.709639999999999604e-01,0.000000000000000000e+00,0.000000000000000000e+00,0.000000000000000000e+00
9.120110000000000161e-01,0.000000000000000000e+00,0.000000000000000000e+00,0.000000000000000000e+00
9.549929999999999808e-01,0.000000000000000000e+00,0.000000000000000000e+00,0.000000000000000000e+00
1.000000000000000000e+00,0.000000000000000000e+00,0.000000000000000000e+00,0.000000000000000000e+00
1.047129999999999894e+00,0.000000000000000000e+00,0.000000000000000000e+00,0.000000000000000000e+00
1.096479999999999899e+00,0.000000000000000000e+00,0.000000000000000000e+00,0.000000000000000000e+00
1.148150000000000004e+00,0.000000000000000000e+00,0.000000000000000000e+00,0.000000000000000000e+00
1.202260000000000106e+00,0.000000000000000000e+00,0.000000000000000000e+00,0.000000000000000000e+00
1.258930000000000105e+00,0.000000000000000000e+00,0.000000000000000000e+00,0.000000000000000000e+00
1.318259999999999987e+00,0.000000000000000000e+00,0.000000000000000000e+00,0.000000000000000000e+00
1.380379999999999940e+00,0.000000000000000000e+00,0.000000000000000000e+00,0.000000000000000000e+00
1.445440000000000058e+00,0.000000000000000000e+00,0.000000000000000000e+00,0.000000000000000000e+00
1.513560000000000016e+00,0.000000000000000000e+00,0.000000000000000000e+00,0.000000000000000000e+00
1.584889999999999910e+00,0.000000000000000000e+00,0.000000000000000000e+00,0.000000000000000000e+00
1.659589999999999899e+00,0.000000000000000000e+00,0.000000000000000000e+00,0.000000000000000000e+00
1.737800000000000011e+00,0.000000000000000000e+00,0.000000000000000000e+00,0.000000000000000000e+00
1.819700000000000095e+00,0.000000000000000000e+00,0.000000000000000000e+00,0.000000000000000000e+00
1.905459999999999932e+00,0.000000000000000000e+00,0.000000000000000000e+00,0.000000000000000000e+00
1.995260000000000034e+00,0.000000000000000000e+00,0.000000000000000000e+00,0.000000000000000000e+00
2.089300000000000157e+00,0.000000000000000000e+00,0.000000000000000000e+00,0.000000000000000000e+00
2.187759999999999927e+00,0.000000000000000000e+00,0.000000000000000000e+00,0.000000000000000000e+00
2.290869999999999962e+00,0.000000000000000000e+00,0.000000000000000000e+00,0.000000000000000000e+00
2.398829999999999796e+00,0.000000000000000000e+00,0.000000000000000000e+00,0.000000000000000000e+00
2.511890000000000178e+00,0.000000000000000000e+00,0.000000000000000000e+00,0.000000000000000000e+00
2.630269999999999886e+00,0.000000000000000000e+00,0.000000000000000000e+00,0.000000000000000000e+00
2.754230000000000178e+00,0.000000000000000000e+00,0.000000000000000000e+00,0.000000000000000000e+00
2.884030000000000094e+00,0.000000000000000000e+00,0.000000000000000000e+00,0.000000000000000000e+00
3.019950000000000134e+00,0.000000000000000000e+00,0.000000000000000000e+00,0.000000000000000000e+00
3.162279999999999980e+00,0.000000000000000000e+00,0.000000000000000000e+00,0.000000000000000000e+00
3.311310000000000198e+00,0.000000000000000000e+00,0.000000000000000000e+00,0.000000000000000000e+00
3.467369999999999841e+00,0.000000000000000000e+00,0.000000000000000000e+00,0.000000000000000000e+00
3.630780000000000118e+00,0.000000000000000000e+00,0.000000000000000000e+00,0.000000000000000000e+00
3.801890000000000214e+00,0.000000000000000000e+00,0.000000000000000000e+00,0.000000000000000000e+00
3.981069999999999887e+00,0.000000000000000000e+00,0.000000000000000000e+00,0.000000000000000000e+00
4.168689999999999785e+00,0.000000000000000000e+00,0.000000000000000000e+00,0.000000000000000000e+00
4.365160000000000373e+00,0.000000000000000000e+00,0.000000000000000000e+00,0.000000000000000000e+00
4.570879999999999832e+00,0.000000000000000000e+00,0.000000000000000000e+00,0.000000000000000000e+00
4.786299999999999777e+00,0.000000000000000000e+00,0.000000000000000000e+00,0.000000000000000000e+00
5.011870000000000047e+00,0.000000000000000000e+00,0.000000000000000000e+00,0.000000000000000000e+00
5.248070000000000235e+00,0.000000000000000000e+00,0.000000000000000000e+00,0.000000000000000000e+00
5.495409999999999684e+00,0.000000000000000000e+00,0.000000000000000000e+00,0.000000000000000000e+00
5.754400000000000404e+00,0.000000000000000000e+00,0.000000000000000000e+00,0.000000000000000000e+00
6.025599999999999845e+00,0.000000000000000000e+00,0.000000000000000000e+00,0.000000000000000000e+00
6.309569999999999901e+00,0.000000000000000000e+00,0.000000000000000000e+00,0.000000000000000000e+00
6.606930000000000192e+00,0.000000000000000000e+00,0.000000000000000000e+00,0.000000000000000000e+00
6.918309999999999960e+00,0.000000000000000000e+00,0.000000000000000000e+00,0.000000000000000000e+00
7.244360000000000355e+00,0.000000000000000000e+00,0.000000000000000000e+00,0.000000000000000000e+00
7.585779999999999745e+00,0.000000000000000000e+00,0.000000000000000000e+00,0.000000000000000000e+00
7.943279999999999674e+00,0.000000000000000000e+00,0.000000000000000000e+00,0.000000000000000000e+00
8.317640000000000811e+00,0.000000000000000000e+00,0.000000000000000000e+00,0.000000000000000000e+00
8.709640000000000271e+00,0.000000000000000000e+00,0.000000000000000000e+00,0.000000000000000000e+00
9.120110000000000383e+00,0.000000000000000000e+00,0.000000000000000000e+00,0.000000000000000000e+00
9.549929999999999808e+00,0.000000000000000000e+00,0.000000000000000000e+00,0.000000000000000000e+00
1.000000000000000000e+01,0.000000000000000000e+00,0.000000000000000000e+00,0.000000000000000000e+00
1.047129999999999939e+01,0.000000000000000000e+00,0.000000000000000000e+00,0.000000000000000000e+00
1.096480000000000032e+01,0.000000000000000000e+00,0.000000000000000000e+00,0.000000000000000000e+00
1.148150000000000048e+01,0.000000000000000000e+00,0.000000000000000000e+00,0.000000000000000000e+00
1.202260000000000062e+01,0.000000000000000000e+00,0.000000000000000000e+00,0.000000000000000000e+00
1.258929999999999971e+01,0.000000000000000000e+00,0.000000000000000000e+00,0.000000000000000000e+00
1.318260000000000076e+01,0.000000000000000000e+00,0.000000000000000000e+00,0.000000000000000000e+00
1.380380000000000074e+01,0.000000000000000000e+00,0.000000000000000000e+00,0.000000000000000000e+00
1.445439999999999969e+01,0.000000000000000000e+00,0.000000000000000000e+00,0.000000000000000000e+00
1.513560000000000016e+01,0.000000000000000000e+00,0.000000000000000000e+00,0.000000000000000000e+00
1.584890000000000043e+01,0.000000000000000000e+00,0.000000000000000000e+00,0.000000000000000000e+00
1.659590000000000032e+01,0.000000000000000000e+00,0.000000000000000000e+00,0.000000000000000000e+00
1.737800000000000011e+01,0.000000000000000000e+00,0.000000000000000000e+00,0.000000000000000000e+00
1.819699999999999918e+01,0.000000000000000000e+00,0.000000000000000000e+00,0.000000000000000000e+00
1.905460000000000065e+01,0.000000000000000000e+00,0.000000000000000000e+00,0.000000000000000000e+00
1.995260000000000034e+01,0.000000000000000000e+00,0.000000000000000000e+00,2.857170000000000000e+06
2.000000000000000000e+01,0.000000000000000000e+00,0.000000000000000000e+00,9.641780800000000000e+07
