\BOOKMARK [0][-]{chapter.1}{Macroscopic}{}% 1
\BOOKMARK [1][-]{section.1.1}{G4NDL45\137ENDFB71\137HP}{chapter.1}% 2
\BOOKMARK [2][-]{subsection.1.1.1}{ALUMINIUM\137METAL 294 K}{section.1.1}% 3
\BOOKMARK [2][-]{subsection.1.1.2}{BERYLLIUM\137METAL 296 K}{section.1.1}% 4
\BOOKMARK [2][-]{subsection.1.1.3}{BERYLLIUM\137OXIDE 294 K}{section.1.1}% 5
\BOOKMARK [2][-]{subsection.1.1.4}{GRAPHITE 296 K}{section.1.1}% 6
\BOOKMARK [2][-]{subsection.1.1.5}{LIGHT\137WATER 294 K}{section.1.1}% 7
\BOOKMARK [2][-]{subsection.1.1.6}{PARA\137HYDROGEN 20 K}{section.1.1}% 8
\BOOKMARK [2][-]{subsection.1.1.7}{POLYETHYLENE 296 K}{section.1.1}% 9
\BOOKMARK [1][-]{section.1.2}{G4NDL47\137ENDFB80\137HP}{chapter.1}% 10
\BOOKMARK [0][-]{chapter.2}{Microscopic}{}% 11
\BOOKMARK [1][-]{section.2.1}{G4NDL45\137ENDFB71\137HP}{chapter.2}% 12
\BOOKMARK [2][-]{subsection.2.1.1}{BERYLLIUM\137METAL 296 K}{section.2.1}% 13
\BOOKMARK [2][-]{subsection.2.1.2}{BERYLLIUM\137OXIDE 294 K}{section.2.1}% 14
\BOOKMARK [2][-]{subsection.2.1.3}{GRAPHITE 296 K}{section.2.1}% 15
\BOOKMARK [2][-]{subsection.2.1.4}{LIGHT\137WATER 294 K}{section.2.1}% 16
\BOOKMARK [2][-]{subsection.2.1.5}{PARA\137HYDROGEN 20 K}{section.2.1}% 17
\BOOKMARK [2][-]{subsection.2.1.6}{POLYETHYLENE 296 K}{section.2.1}% 18
\BOOKMARK [1][-]{section.2.2}{G4NDL47\137ENDFB80\137HP}{chapter.2}% 19
\BOOKMARK [2][-]{subsection.2.2.1}{POLYETHYLENE 77 K}{section.2.2}% 20
\BOOKMARK [2][-]{subsection.2.2.2}{POLYETHYLENE 294 K}{section.2.2}% 21
\BOOKMARK [0][-]{appendix.A}{Material descriptions}{}% 22
