\begin{thebibliography}{1}

\bibitem{HARTLING201825}
K.~Hartling, B.~Ciungu, G.~Li, G.~Bentoumi, and B.~Sur.
\newblock The effects of nuclear data library processing on geant4 and mcnp
  simulations of the thermal neutron scattering law.
\newblock {\em Nuclear Instruments and Methods in Physics Research Section A:
  Accelerators, Spectrometers, Detectors and Associated Equipment}, 891:25--31,
  2018.

\bibitem{THULLIEZ2022166187}
L.~Thulliez, C.~Jouanne, and E.~Dumonteil.
\newblock Improvement of geant4 neutron-hp package: From methodology to
  evaluated nuclear data library.
\newblock {\em Nuclear Instruments and Methods in Physics Research Section A:
  Accelerators, Spectrometers, Detectors and Associated Equipment},
  1027:166187, 2022.

\bibitem{TRAN201884}
H.N. Tran, A.~Marchix, A.~Letourneau, J.~Darpentigny, A.~Menelle, F.~Ott,
  J.~Schwindling, and N.~Chauvin.
\newblock Comparison of the thermal neutron scattering treatment in mcnp6 and
  geant4 codes.
\newblock {\em Nuclear Instruments and Methods in Physics Research Section A:
  Accelerators, Spectrometers, Detectors and Associated Equipment}, 893:84--94,
  2018.

\end{thebibliography}
