This is BibTeX, Version 0.99d (TeX Live 2019/Debian)
Capacity: max_strings=200000, hash_size=200000, hash_prime=170003
The top-level auxiliary file: Geant4.11.00.03NeutronHPBenchmark.aux
The style file: plain.bst
Database file #1: /local/home/mz272279/NeutronHPBenchmarkApp/Scripts/auxiliary/references.bib
You've used 3 entries,
            2118 wiz_defined-function locations,
            518 strings with 4867 characters,
and the built_in function-call counts, 1238 in all, are:
= -- 110
> -- 89
< -- 0
+ -- 36
- -- 32
* -- 106
:= -- 226
add.period$ -- 9
call.type$ -- 3
change.case$ -- 25
chr.to.int$ -- 0
cite$ -- 3
duplicate$ -- 33
empty$ -- 74
format.name$ -- 32
if$ -- 240
int.to.chr$ -- 0
int.to.str$ -- 3
missing$ -- 3
newline$ -- 18
num.names$ -- 6
pop$ -- 19
preamble$ -- 1
purify$ -- 22
quote$ -- 0
skip$ -- 21
stack$ -- 0
substring$ -- 64
swap$ -- 3
text.length$ -- 0
text.prefix$ -- 0
top$ -- 0
type$ -- 12
warning$ -- 0
while$ -- 9
width$ -- 4
write$ -- 35
