5.000000000000000409e-06,0.000000000000000000e+00,6.036640000000000000e+05,-1.000000000000000000e+00,3.677000000000000000e+03
5.009999999999999466e-06,0.000000000000000000e+00,1.331650000000000000e+05,-9.899999999999999911e-01,3.655000000000000000e+03
5.019999999999999370e-06,0.000000000000000000e+00,0.000000000000000000e+00,-9.799999999999999822e-01,3.548000000000000000e+03
5.030000000000000122e-06,0.000000000000000000e+00,0.000000000000000000e+00,-9.699999999999999734e-01,3.600000000000000000e+03
5.040000000000000026e-06,0.000000000000000000e+00,0.000000000000000000e+00,-9.599999999999999645e-01,3.574000000000000000e+03
5.049999999999999930e-06,0.000000000000000000e+00,0.000000000000000000e+00,-9.499999999999999556e-01,3.732000000000000000e+03
5.059999999999999835e-06,0.000000000000000000e+00,0.000000000000000000e+00,-9.399999999999999467e-01,3.583000000000000000e+03
5.070000000000000586e-06,0.000000000000000000e+00,0.000000000000000000e+00,-9.299999999999999378e-01,3.651000000000000000e+03
5.080000000000000490e-06,0.000000000000000000e+00,0.000000000000000000e+00,-9.199999999999999289e-01,3.643000000000000000e+03
5.089999999999999547e-06,0.000000000000000000e+00,0.000000000000000000e+00,-9.099999999999999201e-01,3.571000000000000000e+03
5.099999999999999452e-06,0.000000000000000000e+00,0.000000000000000000e+00,-8.999999999999999112e-01,3.540000000000000000e+03
5.110000000000000203e-06,0.000000000000000000e+00,0.000000000000000000e+00,-8.899999999999999023e-01,3.687000000000000000e+03
5.120000000000000107e-06,0.000000000000000000e+00,0.000000000000000000e+00,-8.799999999999998934e-01,3.707000000000000000e+03
5.130000000000000011e-06,0.000000000000000000e+00,0.000000000000000000e+00,-8.699999999999998845e-01,3.580000000000000000e+03
5.139999999999999916e-06,0.000000000000000000e+00,0.000000000000000000e+00,-8.599999999999998757e-01,3.543000000000000000e+03
5.150000000000000667e-06,0.000000000000000000e+00,0.000000000000000000e+00,-8.499999999999998668e-01,3.660000000000000000e+03
5.159999999999999724e-06,0.000000000000000000e+00,0.000000000000000000e+00,-8.399999999999998579e-01,3.616000000000000000e+03
5.169999999999999628e-06,0.000000000000000000e+00,0.000000000000000000e+00,-8.299999999999998490e-01,3.661000000000000000e+03
5.179999999999999533e-06,0.000000000000000000e+00,0.000000000000000000e+00,-8.199999999999998401e-01,3.625000000000000000e+03
5.190000000000000284e-06,0.000000000000000000e+00,0.000000000000000000e+00,-8.099999999999998312e-01,3.740000000000000000e+03
5.200000000000000188e-06,0.000000000000000000e+00,0.000000000000000000e+00,-7.999999999999998224e-01,3.596000000000000000e+03
5.210000000000000092e-06,0.000000000000000000e+00,0.000000000000000000e+00,-7.899999999999998135e-01,3.762000000000000000e+03
5.219999999999999997e-06,0.000000000000000000e+00,0.000000000000000000e+00,-7.799999999999998046e-01,3.572000000000000000e+03
5.230000000000000748e-06,0.000000000000000000e+00,0.000000000000000000e+00,-7.699999999999997957e-01,3.731000000000000000e+03
5.239999999999999805e-06,0.000000000000000000e+00,0.000000000000000000e+00,-7.599999999999997868e-01,3.688000000000000000e+03
5.249999999999999709e-06,0.000000000000000000e+00,0.000000000000000000e+00,-7.499999999999997780e-01,3.703000000000000000e+03
5.259999999999999614e-06,0.000000000000000000e+00,0.000000000000000000e+00,-7.399999999999997691e-01,3.542000000000000000e+03
5.269999999999999518e-06,0.000000000000000000e+00,0.000000000000000000e+00,-7.299999999999997602e-01,3.603000000000000000e+03
5.280000000000000269e-06,0.000000000000000000e+00,0.000000000000000000e+00,-7.199999999999997513e-01,3.651000000000000000e+03
5.290000000000000174e-06,0.000000000000000000e+00,0.000000000000000000e+00,-7.099999999999997424e-01,3.618000000000000000e+03
5.300000000000000078e-06,0.000000000000000000e+00,0.000000000000000000e+00,-6.999999999999997335e-01,3.692000000000000000e+03
5.309999999999999982e-06,0.000000000000000000e+00,0.000000000000000000e+00,-6.899999999999997247e-01,3.780000000000000000e+03
5.319999999999999886e-06,0.000000000000000000e+00,0.000000000000000000e+00,-6.799999999999997158e-01,3.803000000000000000e+03
5.329999999999999791e-06,0.000000000000000000e+00,0.000000000000000000e+00,-6.699999999999997069e-01,3.595000000000000000e+03
5.339999999999999695e-06,0.000000000000000000e+00,0.000000000000000000e+00,-6.599999999999996980e-01,3.637000000000000000e+03
5.349999999999999599e-06,0.000000000000000000e+00,0.000000000000000000e+00,-6.499999999999996891e-01,3.627000000000000000e+03
5.360000000000000350e-06,0.000000000000000000e+00,0.000000000000000000e+00,-6.399999999999996803e-01,3.689000000000000000e+03
5.370000000000000255e-06,0.000000000000000000e+00,0.000000000000000000e+00,-6.299999999999996714e-01,3.611000000000000000e+03
5.380000000000000159e-06,0.000000000000000000e+00,0.000000000000000000e+00,-6.199999999999996625e-01,3.605000000000000000e+03
5.390000000000000063e-06,0.000000000000000000e+00,0.000000000000000000e+00,-6.099999999999996536e-01,3.616000000000000000e+03
5.399999999999999967e-06,0.000000000000000000e+00,0.000000000000000000e+00,-5.999999999999996447e-01,3.594000000000000000e+03
5.409999999999999872e-06,0.000000000000000000e+00,0.000000000000000000e+00,-5.899999999999996358e-01,3.725000000000000000e+03
5.419999999999999776e-06,0.000000000000000000e+00,0.000000000000000000e+00,-5.799999999999996270e-01,3.619000000000000000e+03
5.429999999999999680e-06,0.000000000000000000e+00,0.000000000000000000e+00,-5.699999999999996181e-01,3.787000000000000000e+03
5.440000000000000431e-06,0.000000000000000000e+00,0.000000000000000000e+00,-5.599999999999996092e-01,3.629000000000000000e+03
5.450000000000000336e-06,0.000000000000000000e+00,0.000000000000000000e+00,-5.499999999999996003e-01,3.658000000000000000e+03
5.460000000000000240e-06,0.000000000000000000e+00,0.000000000000000000e+00,-5.399999999999995914e-01,3.720000000000000000e+03
5.470000000000000144e-06,0.000000000000000000e+00,0.000000000000000000e+00,-5.299999999999995826e-01,3.596000000000000000e+03
5.480000000000000048e-06,0.000000000000000000e+00,0.000000000000000000e+00,-5.199999999999995737e-01,3.690000000000000000e+03
5.489999999999999953e-06,0.000000000000000000e+00,0.000000000000000000e+00,-5.099999999999995648e-01,3.666000000000000000e+03
5.499999999999999857e-06,0.000000000000000000e+00,0.000000000000000000e+00,-4.999999999999995559e-01,3.686000000000000000e+03
5.509999999999999761e-06,0.000000000000000000e+00,0.000000000000000000e+00,-4.899999999999995470e-01,3.695000000000000000e+03
5.519999999999999666e-06,0.000000000000000000e+00,0.000000000000000000e+00,-4.799999999999995381e-01,3.651000000000000000e+03
5.530000000000000417e-06,0.000000000000000000e+00,0.000000000000000000e+00,-4.699999999999995293e-01,3.646000000000000000e+03
5.540000000000000321e-06,0.000000000000000000e+00,0.000000000000000000e+00,-4.599999999999995204e-01,3.793000000000000000e+03
5.550000000000000225e-06,0.000000000000000000e+00,0.000000000000000000e+00,-4.499999999999995115e-01,3.683000000000000000e+03
5.560000000000000130e-06,0.000000000000000000e+00,0.000000000000000000e+00,-4.399999999999995026e-01,3.667000000000000000e+03
5.570000000000000034e-06,0.000000000000000000e+00,0.000000000000000000e+00,-4.299999999999994937e-01,3.698000000000000000e+03
5.579999999999999938e-06,0.000000000000000000e+00,0.000000000000000000e+00,-4.199999999999994849e-01,3.619000000000000000e+03
5.589999999999999842e-06,0.000000000000000000e+00,0.000000000000000000e+00,-4.099999999999994760e-01,3.666000000000000000e+03
5.599999999999999747e-06,0.000000000000000000e+00,0.000000000000000000e+00,-3.999999999999994671e-01,3.735000000000000000e+03
5.610000000000000498e-06,0.000000000000000000e+00,0.000000000000000000e+00,-3.899999999999994582e-01,3.670000000000000000e+03
5.620000000000000402e-06,0.000000000000000000e+00,0.000000000000000000e+00,-3.799999999999994493e-01,3.644000000000000000e+03
5.630000000000000306e-06,0.000000000000000000e+00,0.000000000000000000e+00,-3.699999999999994404e-01,3.643000000000000000e+03
5.639999999999999364e-06,0.000000000000000000e+00,0.000000000000000000e+00,-3.599999999999994316e-01,3.605000000000000000e+03
5.650000000000000115e-06,0.000000000000000000e+00,0.000000000000000000e+00,-3.499999999999994227e-01,3.705000000000000000e+03
5.660000000000000019e-06,0.000000000000000000e+00,0.000000000000000000e+00,-3.399999999999994138e-01,3.743000000000000000e+03
5.669999999999999923e-06,0.000000000000000000e+00,0.000000000000000000e+00,-3.299999999999994049e-01,3.671000000000000000e+03
5.679999999999999828e-06,0.000000000000000000e+00,0.000000000000000000e+00,-3.199999999999993960e-01,3.622000000000000000e+03
5.690000000000000579e-06,0.000000000000000000e+00,0.000000000000000000e+00,-3.099999999999993872e-01,3.752000000000000000e+03
5.700000000000000483e-06,0.000000000000000000e+00,0.000000000000000000e+00,-2.999999999999993783e-01,3.768000000000000000e+03
5.710000000000000387e-06,0.000000000000000000e+00,0.000000000000000000e+00,-2.899999999999993694e-01,3.777000000000000000e+03
5.719999999999999445e-06,0.000000000000000000e+00,0.000000000000000000e+00,-2.799999999999993605e-01,3.695000000000000000e+03
5.730000000000000196e-06,0.000000000000000000e+00,0.000000000000000000e+00,-2.699999999999993516e-01,3.647000000000000000e+03
5.740000000000000100e-06,0.000000000000000000e+00,0.000000000000000000e+00,-2.599999999999993427e-01,3.605000000000000000e+03
5.750000000000000004e-06,0.000000000000000000e+00,0.000000000000000000e+00,-2.499999999999993339e-01,3.586000000000000000e+03
5.759999999999999909e-06,0.000000000000000000e+00,0.000000000000000000e+00,-2.399999999999993250e-01,3.736000000000000000e+03
5.769999999999999813e-06,0.000000000000000000e+00,0.000000000000000000e+00,-2.299999999999993161e-01,3.784000000000000000e+03
5.780000000000000564e-06,0.000000000000000000e+00,0.000000000000000000e+00,-2.199999999999993072e-01,3.637000000000000000e+03
5.789999999999999622e-06,0.000000000000000000e+00,0.000000000000000000e+00,-2.099999999999992983e-01,3.681000000000000000e+03
5.799999999999999526e-06,0.000000000000000000e+00,0.000000000000000000e+00,-1.999999999999992895e-01,3.605000000000000000e+03
5.810000000000000277e-06,0.000000000000000000e+00,0.000000000000000000e+00,-1.899999999999992806e-01,3.676000000000000000e+03
5.820000000000000181e-06,0.000000000000000000e+00,0.000000000000000000e+00,-1.799999999999992717e-01,3.674000000000000000e+03
5.830000000000000086e-06,0.000000000000000000e+00,0.000000000000000000e+00,-1.699999999999992628e-01,3.593000000000000000e+03
5.839999999999999990e-06,0.000000000000000000e+00,0.000000000000000000e+00,-1.599999999999992539e-01,3.741000000000000000e+03
5.849999999999999894e-06,0.000000000000000000e+00,0.000000000000000000e+00,-1.499999999999992450e-01,3.647000000000000000e+03
5.860000000000000645e-06,0.000000000000000000e+00,0.000000000000000000e+00,-1.399999999999992362e-01,3.608000000000000000e+03
5.869999999999999703e-06,0.000000000000000000e+00,0.000000000000000000e+00,-1.299999999999992273e-01,3.658000000000000000e+03
5.879999999999999607e-06,0.000000000000000000e+00,0.000000000000000000e+00,-1.199999999999992184e-01,3.661000000000000000e+03
5.889999999999999511e-06,0.000000000000000000e+00,0.000000000000000000e+00,-1.099999999999992095e-01,3.684000000000000000e+03
5.900000000000000262e-06,0.000000000000000000e+00,0.000000000000000000e+00,-9.999999999999920064e-02,3.769000000000000000e+03
5.910000000000000167e-06,0.000000000000000000e+00,0.000000000000000000e+00,-8.999999999999919176e-02,3.624000000000000000e+03
5.920000000000000071e-06,0.000000000000000000e+00,0.000000000000000000e+00,-7.999999999999918288e-02,3.748000000000000000e+03
5.929999999999999975e-06,0.000000000000000000e+00,0.000000000000000000e+00,-6.999999999999917399e-02,3.670000000000000000e+03
5.940000000000000726e-06,0.000000000000000000e+00,0.000000000000000000e+00,-5.999999999999916511e-02,3.684000000000000000e+03
5.949999999999999784e-06,0.000000000000000000e+00,0.000000000000000000e+00,-4.999999999999915623e-02,3.634000000000000000e+03
5.959999999999999688e-06,0.000000000000000000e+00,0.000000000000000000e+00,-3.999999999999914735e-02,3.588000000000000000e+03
5.969999999999999592e-06,0.000000000000000000e+00,0.000000000000000000e+00,-2.999999999999913847e-02,3.714000000000000000e+03
5.980000000000000343e-06,0.000000000000000000e+00,0.000000000000000000e+00,-1.999999999999912959e-02,3.709000000000000000e+03
5.990000000000000248e-06,0.000000000000000000e+00,0.000000000000000000e+00,-9.999999999999120703e-03,3.675000000000000000e+03
6.000000000000000152e-06,0.000000000000000000e+00,0.000000000000000000e+00,8.881784197001252323e-16,3.778000000000000000e+03
6.010000000000000056e-06,0.000000000000000000e+00,0.000000000000000000e+00,1.000000000000089706e-02,3.648000000000000000e+03
6.019999999999999961e-06,0.000000000000000000e+00,0.000000000000000000e+00,2.000000000000090594e-02,3.669000000000000000e+03
6.029999999999999865e-06,0.000000000000000000e+00,0.000000000000000000e+00,3.000000000000091482e-02,3.787000000000000000e+03
6.039999999999999769e-06,0.000000000000000000e+00,0.000000000000000000e+00,4.000000000000092371e-02,3.748000000000000000e+03
6.049999999999999673e-06,0.000000000000000000e+00,0.000000000000000000e+00,5.000000000000093259e-02,3.747000000000000000e+03
6.060000000000000425e-06,0.000000000000000000e+00,0.000000000000000000e+00,6.000000000000094147e-02,3.692000000000000000e+03
6.070000000000000329e-06,0.000000000000000000e+00,0.000000000000000000e+00,7.000000000000095035e-02,3.642000000000000000e+03
6.080000000000000233e-06,0.000000000000000000e+00,0.000000000000000000e+00,8.000000000000095923e-02,3.728000000000000000e+03
6.090000000000000137e-06,0.000000000000000000e+00,0.000000000000000000e+00,9.000000000000096811e-02,3.636000000000000000e+03
6.100000000000000042e-06,0.000000000000000000e+00,0.000000000000000000e+00,1.000000000000009770e-01,3.712000000000000000e+03
6.109999999999999946e-06,0.000000000000000000e+00,0.000000000000000000e+00,1.100000000000009859e-01,3.619000000000000000e+03
6.119999999999999850e-06,1.000000000000000000e+00,0.000000000000000000e+00,1.200000000000009948e-01,3.710000000000000000e+03
6.129999999999999754e-06,4.000000000000000000e+00,0.000000000000000000e+00,1.300000000000010036e-01,3.630000000000000000e+03
6.140000000000000506e-06,2.000000000000000000e+00,0.000000000000000000e+00,1.400000000000010125e-01,3.646000000000000000e+03
6.150000000000000410e-06,8.000000000000000000e+00,0.000000000000000000e+00,1.500000000000010214e-01,3.699000000000000000e+03
6.160000000000000314e-06,9.000000000000000000e+00,0.000000000000000000e+00,1.600000000000010303e-01,3.646000000000000000e+03
6.170000000000000218e-06,2.200000000000000000e+01,0.000000000000000000e+00,1.700000000000010392e-01,3.771000000000000000e+03
6.180000000000000123e-06,3.200000000000000000e+01,0.000000000000000000e+00,1.800000000000010481e-01,3.716000000000000000e+03
6.189999999999999180e-06,5.800000000000000000e+01,0.000000000000000000e+00,1.900000000000010569e-01,3.725000000000000000e+03
6.199999999999999931e-06,9.300000000000000000e+01,0.000000000000000000e+00,2.000000000000010658e-01,3.666000000000000000e+03
6.209999999999999835e-06,1.280000000000000000e+02,0.000000000000000000e+00,2.100000000000010747e-01,3.707000000000000000e+03
6.219999999999999740e-06,2.080000000000000000e+02,0.000000000000000000e+00,2.200000000000010836e-01,3.732000000000000000e+03
6.230000000000000491e-06,3.030000000000000000e+02,0.000000000000000000e+00,2.300000000000010925e-01,3.709000000000000000e+03
6.240000000000000395e-06,4.370000000000000000e+02,0.000000000000000000e+00,2.400000000000011013e-01,3.567000000000000000e+03
6.250000000000000300e-06,6.500000000000000000e+02,0.000000000000000000e+00,2.500000000000011102e-01,3.613000000000000000e+03
6.260000000000000204e-06,8.870000000000000000e+02,0.000000000000000000e+00,2.600000000000011191e-01,3.656000000000000000e+03
6.269999999999999261e-06,1.299000000000000000e+03,0.000000000000000000e+00,2.700000000000011280e-01,3.747000000000000000e+03
6.280000000000000012e-06,1.753000000000000000e+03,0.000000000000000000e+00,2.800000000000011369e-01,3.615000000000000000e+03
6.289999999999999917e-06,2.369000000000000000e+03,0.000000000000000000e+00,2.900000000000011458e-01,3.703000000000000000e+03
6.299999999999999821e-06,3.120000000000000000e+03,0.000000000000000000e+00,3.000000000000011546e-01,3.560000000000000000e+03
6.310000000000000572e-06,4.085000000000000000e+03,0.000000000000000000e+00,3.100000000000011635e-01,3.733000000000000000e+03
6.320000000000000476e-06,5.158000000000000000e+03,0.000000000000000000e+00,3.200000000000011724e-01,3.728000000000000000e+03
6.330000000000000381e-06,6.527000000000000000e+03,0.000000000000000000e+00,3.300000000000011813e-01,3.603000000000000000e+03
6.339999999999999438e-06,8.149000000000000000e+03,0.000000000000000000e+00,3.400000000000011902e-01,3.688000000000000000e+03
6.349999999999999342e-06,1.003300000000000000e+04,0.000000000000000000e+00,3.500000000000011990e-01,3.611000000000000000e+03
6.360000000000000093e-06,1.230900000000000000e+04,0.000000000000000000e+00,3.600000000000012079e-01,3.699000000000000000e+03
6.369999999999999998e-06,1.483900000000000000e+04,0.000000000000000000e+00,3.700000000000012168e-01,3.644000000000000000e+03
6.379999999999999902e-06,1.744900000000000000e+04,0.000000000000000000e+00,3.800000000000012257e-01,3.640000000000000000e+03
6.390000000000000653e-06,2.021300000000000000e+04,0.000000000000000000e+00,3.900000000000012346e-01,3.757000000000000000e+03
6.400000000000000557e-06,2.304000000000000000e+04,0.000000000000000000e+00,4.000000000000012434e-01,3.757000000000000000e+03
6.410000000000000462e-06,2.670700000000000000e+04,0.000000000000000000e+00,4.100000000000012523e-01,3.710000000000000000e+03
6.419999999999999519e-06,2.972500000000000000e+04,0.000000000000000000e+00,4.200000000000012612e-01,3.592000000000000000e+03
6.429999999999999423e-06,3.376200000000000000e+04,0.000000000000000000e+00,4.300000000000012701e-01,3.756000000000000000e+03
6.439999999999999327e-06,3.695800000000000000e+04,0.000000000000000000e+00,4.400000000000012790e-01,3.721000000000000000e+03
6.450000000000000079e-06,4.031500000000000000e+04,0.000000000000000000e+00,4.500000000000012879e-01,3.736000000000000000e+03
6.459999999999999983e-06,4.352700000000000000e+04,0.000000000000000000e+00,4.600000000000012967e-01,3.672000000000000000e+03
6.469999999999999887e-06,4.638800000000000000e+04,0.000000000000000000e+00,4.700000000000013056e-01,3.746000000000000000e+03
6.480000000000000639e-06,4.970700000000000000e+04,0.000000000000000000e+00,4.800000000000013145e-01,3.706000000000000000e+03
6.490000000000000543e-06,5.218700000000000000e+04,0.000000000000000000e+00,4.900000000000013234e-01,3.746000000000000000e+03
6.499999999999999600e-06,5.458500000000000000e+04,0.000000000000000000e+00,5.000000000000013323e-01,3.695000000000000000e+03
6.509999999999999504e-06,5.661800000000000000e+04,0.000000000000000000e+00,5.100000000000013411e-01,3.715000000000000000e+03
6.519999999999999408e-06,4.749400000000000000e+04,0.000000000000000000e+00,5.200000000000013500e-01,3.586000000000000000e+03
6.530000000000000160e-06,3.078300000000000000e+04,0.000000000000000000e+00,5.300000000000013589e-01,3.693000000000000000e+03
6.540000000000000064e-06,1.993400000000000000e+04,0.000000000000000000e+00,5.400000000000013678e-01,3.623000000000000000e+03
6.549999999999999968e-06,1.286100000000000000e+04,0.000000000000000000e+00,5.500000000000013767e-01,3.746000000000000000e+03
6.560000000000000720e-06,8.199000000000000000e+03,0.000000000000000000e+00,5.600000000000013856e-01,3.684000000000000000e+03
6.570000000000000624e-06,5.294000000000000000e+03,0.000000000000000000e+00,5.700000000000013944e-01,3.780000000000000000e+03
6.579999999999999681e-06,3.299000000000000000e+03,0.000000000000000000e+00,5.800000000000014033e-01,3.704000000000000000e+03
6.589999999999999585e-06,2.049000000000000000e+03,0.000000000000000000e+00,5.900000000000014122e-01,3.661000000000000000e+03
6.599999999999999490e-06,1.272000000000000000e+03,0.000000000000000000e+00,6.000000000000014211e-01,3.749000000000000000e+03
6.610000000000000241e-06,7.930000000000000000e+02,0.000000000000000000e+00,6.100000000000014300e-01,3.582000000000000000e+03
6.620000000000000145e-06,4.820000000000000000e+02,0.000000000000000000e+00,6.200000000000014388e-01,3.744000000000000000e+03
6.630000000000000049e-06,2.630000000000000000e+02,0.000000000000000000e+00,6.300000000000014477e-01,3.696000000000000000e+03
6.640000000000000801e-06,2.030000000000000000e+02,0.000000000000000000e+00,6.400000000000014566e-01,3.733000000000000000e+03
6.650000000000000705e-06,9.800000000000000000e+01,0.000000000000000000e+00,6.500000000000014655e-01,3.743000000000000000e+03
6.659999999999999762e-06,6.200000000000000000e+01,0.000000000000000000e+00,6.600000000000014744e-01,3.709000000000000000e+03
6.669999999999999666e-06,3.100000000000000000e+01,0.000000000000000000e+00,6.700000000000014833e-01,3.726000000000000000e+03
6.679999999999999571e-06,2.300000000000000000e+01,0.000000000000000000e+00,6.800000000000014921e-01,3.735000000000000000e+03
6.689999999999999475e-06,1.000000000000000000e+01,0.000000000000000000e+00,6.900000000000015010e-01,3.748000000000000000e+03
6.700000000000000226e-06,5.000000000000000000e+00,0.000000000000000000e+00,7.000000000000015099e-01,3.709000000000000000e+03
6.710000000000000130e-06,4.000000000000000000e+00,0.000000000000000000e+00,7.100000000000015188e-01,3.727000000000000000e+03
6.720000000000000035e-06,3.000000000000000000e+00,0.000000000000000000e+00,7.200000000000015277e-01,3.619000000000000000e+03
6.730000000000000786e-06,2.000000000000000000e+00,0.000000000000000000e+00,7.300000000000015365e-01,3.666000000000000000e+03
6.739999999999999843e-06,0.000000000000000000e+00,0.000000000000000000e+00,7.400000000000015454e-01,3.779000000000000000e+03
6.749999999999999747e-06,0.000000000000000000e+00,0.000000000000000000e+00,7.500000000000015543e-01,3.810000000000000000e+03
6.759999999999999652e-06,0.000000000000000000e+00,0.000000000000000000e+00,7.600000000000015632e-01,3.665000000000000000e+03
6.769999999999999556e-06,0.000000000000000000e+00,0.000000000000000000e+00,7.700000000000015721e-01,3.603000000000000000e+03
6.780000000000000307e-06,0.000000000000000000e+00,0.000000000000000000e+00,7.800000000000015810e-01,3.753000000000000000e+03
6.790000000000000212e-06,1.000000000000000000e+00,0.000000000000000000e+00,7.900000000000015898e-01,3.827000000000000000e+03
6.800000000000000116e-06,0.000000000000000000e+00,0.000000000000000000e+00,8.000000000000015987e-01,3.783000000000000000e+03
6.810000000000000867e-06,0.000000000000000000e+00,0.000000000000000000e+00,8.100000000000016076e-01,3.776000000000000000e+03
6.819999999999999924e-06,0.000000000000000000e+00,0.000000000000000000e+00,8.200000000000016165e-01,3.787000000000000000e+03
6.829999999999999829e-06,0.000000000000000000e+00,0.000000000000000000e+00,8.300000000000016254e-01,3.629000000000000000e+03
6.839999999999999733e-06,0.000000000000000000e+00,0.000000000000000000e+00,8.400000000000016342e-01,3.662000000000000000e+03
6.849999999999999637e-06,0.000000000000000000e+00,0.000000000000000000e+00,8.500000000000016431e-01,3.784000000000000000e+03
6.860000000000000388e-06,0.000000000000000000e+00,0.000000000000000000e+00,8.600000000000016520e-01,3.699000000000000000e+03
6.870000000000000293e-06,0.000000000000000000e+00,0.000000000000000000e+00,8.700000000000016609e-01,3.707000000000000000e+03
6.880000000000000197e-06,0.000000000000000000e+00,0.000000000000000000e+00,8.800000000000016698e-01,3.760000000000000000e+03
6.890000000000000948e-06,0.000000000000000000e+00,0.000000000000000000e+00,8.900000000000016787e-01,3.688000000000000000e+03
6.900000000000000005e-06,0.000000000000000000e+00,0.000000000000000000e+00,9.000000000000016875e-01,3.813000000000000000e+03
6.909999999999999910e-06,0.000000000000000000e+00,0.000000000000000000e+00,9.100000000000016964e-01,3.720000000000000000e+03
6.919999999999999814e-06,0.000000000000000000e+00,0.000000000000000000e+00,9.200000000000017053e-01,3.919000000000000000e+03
6.929999999999999718e-06,0.000000000000000000e+00,0.000000000000000000e+00,9.300000000000017142e-01,3.725000000000000000e+03
6.939999999999999622e-06,0.000000000000000000e+00,0.000000000000000000e+00,9.400000000000017231e-01,3.723000000000000000e+03
6.950000000000000374e-06,0.000000000000000000e+00,0.000000000000000000e+00,9.500000000000017319e-01,3.713000000000000000e+03
6.960000000000000278e-06,0.000000000000000000e+00,0.000000000000000000e+00,9.600000000000017408e-01,3.799000000000000000e+03
6.969999999999999335e-06,0.000000000000000000e+00,0.000000000000000000e+00,9.700000000000017497e-01,3.712000000000000000e+03
6.980000000000000086e-06,0.000000000000000000e+00,0.000000000000000000e+00,9.800000000000017586e-01,3.716000000000000000e+03
6.989999999999999991e-06,0.000000000000000000e+00,0.000000000000000000e+00,9.900000000000017675e-01,3.765000000000000000e+03
6.999999999999999895e-06,0.000000000000000000e+00,0.000000000000000000e+00,1.000000000000001776e+00,0.000000000000000000e+00
7.009999999999999799e-06,0.000000000000000000e+00,0.000000000000000000e+00,0.000000000000000000e+00,0.000000000000000000e+00
7.019999999999999704e-06,0.000000000000000000e+00,0.000000000000000000e+00,0.000000000000000000e+00,0.000000000000000000e+00
7.030000000000000455e-06,0.000000000000000000e+00,0.000000000000000000e+00,0.000000000000000000e+00,0.000000000000000000e+00
7.040000000000000359e-06,0.000000000000000000e+00,0.000000000000000000e+00,0.000000000000000000e+00,0.000000000000000000e+00
7.049999999999999416e-06,0.000000000000000000e+00,0.000000000000000000e+00,0.000000000000000000e+00,0.000000000000000000e+00
7.060000000000000168e-06,0.000000000000000000e+00,0.000000000000000000e+00,0.000000000000000000e+00,0.000000000000000000e+00
7.070000000000000072e-06,0.000000000000000000e+00,0.000000000000000000e+00,0.000000000000000000e+00,0.000000000000000000e+00
7.079999999999999976e-06,0.000000000000000000e+00,0.000000000000000000e+00,0.000000000000000000e+00,0.000000000000000000e+00
7.089999999999999880e-06,0.000000000000000000e+00,0.000000000000000000e+00,0.000000000000000000e+00,0.000000000000000000e+00
7.099999999999999785e-06,0.000000000000000000e+00,0.000000000000000000e+00,0.000000000000000000e+00,0.000000000000000000e+00
7.109999999999999689e-06,0.000000000000000000e+00,0.000000000000000000e+00,0.000000000000000000e+00,0.000000000000000000e+00
7.120000000000000440e-06,0.000000000000000000e+00,0.000000000000000000e+00,0.000000000000000000e+00,0.000000000000000000e+00
7.129999999999999497e-06,0.000000000000000000e+00,0.000000000000000000e+00,0.000000000000000000e+00,0.000000000000000000e+00
7.140000000000000249e-06,0.000000000000000000e+00,0.000000000000000000e+00,0.000000000000000000e+00,0.000000000000000000e+00
7.150000000000000153e-06,0.000000000000000000e+00,0.000000000000000000e+00,0.000000000000000000e+00,0.000000000000000000e+00
7.160000000000000057e-06,0.000000000000000000e+00,0.000000000000000000e+00,0.000000000000000000e+00,0.000000000000000000e+00
7.169999999999999961e-06,0.000000000000000000e+00,0.000000000000000000e+00,0.000000000000000000e+00,0.000000000000000000e+00
7.179999999999999866e-06,0.000000000000000000e+00,0.000000000000000000e+00,0.000000000000000000e+00,0.000000000000000000e+00
7.189999999999999770e-06,0.000000000000000000e+00,0.000000000000000000e+00,0.000000000000000000e+00,0.000000000000000000e+00
7.200000000000000521e-06,0.000000000000000000e+00,0.000000000000000000e+00,0.000000000000000000e+00,0.000000000000000000e+00
7.209999999999999578e-06,0.000000000000000000e+00,0.000000000000000000e+00,0.000000000000000000e+00,0.000000000000000000e+00
7.220000000000000330e-06,0.000000000000000000e+00,0.000000000000000000e+00,0.000000000000000000e+00,0.000000000000000000e+00
7.230000000000000234e-06,0.000000000000000000e+00,0.000000000000000000e+00,0.000000000000000000e+00,0.000000000000000000e+00
7.240000000000000138e-06,0.000000000000000000e+00,0.000000000000000000e+00,0.000000000000000000e+00,0.000000000000000000e+00
7.250000000000000043e-06,0.000000000000000000e+00,0.000000000000000000e+00,0.000000000000000000e+00,0.000000000000000000e+00
7.259999999999999947e-06,0.000000000000000000e+00,0.000000000000000000e+00,0.000000000000000000e+00,0.000000000000000000e+00
7.269999999999999851e-06,0.000000000000000000e+00,0.000000000000000000e+00,0.000000000000000000e+00,0.000000000000000000e+00
7.280000000000000602e-06,0.000000000000000000e+00,0.000000000000000000e+00,0.000000000000000000e+00,0.000000000000000000e+00
7.289999999999999660e-06,0.000000000000000000e+00,0.000000000000000000e+00,0.000000000000000000e+00,0.000000000000000000e+00
7.300000000000000411e-06,0.000000000000000000e+00,0.000000000000000000e+00,0.000000000000000000e+00,0.000000000000000000e+00
7.310000000000000315e-06,0.000000000000000000e+00,0.000000000000000000e+00,0.000000000000000000e+00,0.000000000000000000e+00
7.320000000000000219e-06,0.000000000000000000e+00,0.000000000000000000e+00,0.000000000000000000e+00,0.000000000000000000e+00
7.330000000000000124e-06,0.000000000000000000e+00,0.000000000000000000e+00,0.000000000000000000e+00,0.000000000000000000e+00
7.340000000000000028e-06,0.000000000000000000e+00,0.000000000000000000e+00,0.000000000000000000e+00,0.000000000000000000e+00
7.349999999999999932e-06,0.000000000000000000e+00,0.000000000000000000e+00,0.000000000000000000e+00,0.000000000000000000e+00
7.359999999999999836e-06,0.000000000000000000e+00,0.000000000000000000e+00,0.000000000000000000e+00,0.000000000000000000e+00
7.369999999999999741e-06,0.000000000000000000e+00,0.000000000000000000e+00,0.000000000000000000e+00,0.000000000000000000e+00
7.379999999999999645e-06,0.000000000000000000e+00,0.000000000000000000e+00,0.000000000000000000e+00,0.000000000000000000e+00
7.390000000000000396e-06,0.000000000000000000e+00,0.000000000000000000e+00,0.000000000000000000e+00,0.000000000000000000e+00
7.400000000000000300e-06,0.000000000000000000e+00,0.000000000000000000e+00,0.000000000000000000e+00,0.000000000000000000e+00
7.410000000000000205e-06,0.000000000000000000e+00,0.000000000000000000e+00,0.000000000000000000e+00,0.000000000000000000e+00
7.420000000000000109e-06,0.000000000000000000e+00,0.000000000000000000e+00,0.000000000000000000e+00,0.000000000000000000e+00
7.430000000000000013e-06,0.000000000000000000e+00,0.000000000000000000e+00,0.000000000000000000e+00,0.000000000000000000e+00
7.439999999999999917e-06,0.000000000000000000e+00,0.000000000000000000e+00,0.000000000000000000e+00,0.000000000000000000e+00
7.449999999999999822e-06,0.000000000000000000e+00,0.000000000000000000e+00,0.000000000000000000e+00,0.000000000000000000e+00
7.459999999999999726e-06,0.000000000000000000e+00,0.000000000000000000e+00,0.000000000000000000e+00,0.000000000000000000e+00
7.470000000000000477e-06,0.000000000000000000e+00,0.000000000000000000e+00,0.000000000000000000e+00,0.000000000000000000e+00
7.480000000000000381e-06,0.000000000000000000e+00,0.000000000000000000e+00,0.000000000000000000e+00,0.000000000000000000e+00
7.490000000000000286e-06,0.000000000000000000e+00,0.000000000000000000e+00,0.000000000000000000e+00,0.000000000000000000e+00
7.500000000000000190e-06,0.000000000000000000e+00,0.000000000000000000e+00,0.000000000000000000e+00,0.000000000000000000e+00
7.510000000000000094e-06,0.000000000000000000e+00,0.000000000000000000e+00,0.000000000000000000e+00,0.000000000000000000e+00
7.519999999999999151e-06,0.000000000000000000e+00,0.000000000000000000e+00,0.000000000000000000e+00,0.000000000000000000e+00
7.529999999999999903e-06,0.000000000000000000e+00,0.000000000000000000e+00,0.000000000000000000e+00,0.000000000000000000e+00
7.539999999999999807e-06,0.000000000000000000e+00,0.000000000000000000e+00,0.000000000000000000e+00,0.000000000000000000e+00
7.550000000000000558e-06,0.000000000000000000e+00,0.000000000000000000e+00,0.000000000000000000e+00,0.000000000000000000e+00
7.560000000000000463e-06,0.000000000000000000e+00,0.000000000000000000e+00,0.000000000000000000e+00,0.000000000000000000e+00
7.570000000000000367e-06,0.000000000000000000e+00,0.000000000000000000e+00,0.000000000000000000e+00,0.000000000000000000e+00
7.580000000000000271e-06,0.000000000000000000e+00,0.000000000000000000e+00,0.000000000000000000e+00,0.000000000000000000e+00
7.590000000000000175e-06,0.000000000000000000e+00,0.000000000000000000e+00,0.000000000000000000e+00,0.000000000000000000e+00
7.599999999999999233e-06,0.000000000000000000e+00,0.000000000000000000e+00,0.000000000000000000e+00,0.000000000000000000e+00
7.609999999999999137e-06,0.000000000000000000e+00,0.000000000000000000e+00,0.000000000000000000e+00,0.000000000000000000e+00
7.619999999999999888e-06,0.000000000000000000e+00,0.000000000000000000e+00,0.000000000000000000e+00,0.000000000000000000e+00
7.629999999999999792e-06,0.000000000000000000e+00,0.000000000000000000e+00,0.000000000000000000e+00,0.000000000000000000e+00
7.640000000000001391e-06,0.000000000000000000e+00,0.000000000000000000e+00,0.000000000000000000e+00,0.000000000000000000e+00
7.649999999999999601e-06,0.000000000000000000e+00,0.000000000000000000e+00,0.000000000000000000e+00,0.000000000000000000e+00
7.659999999999999505e-06,0.000000000000000000e+00,0.000000000000000000e+00,0.000000000000000000e+00,0.000000000000000000e+00
7.669999999999999409e-06,0.000000000000000000e+00,0.000000000000000000e+00,0.000000000000000000e+00,0.000000000000000000e+00
7.679999999999999314e-06,0.000000000000000000e+00,0.000000000000000000e+00,0.000000000000000000e+00,0.000000000000000000e+00
7.689999999999999218e-06,0.000000000000000000e+00,0.000000000000000000e+00,0.000000000000000000e+00,0.000000000000000000e+00
7.700000000000000816e-06,0.000000000000000000e+00,0.000000000000000000e+00,0.000000000000000000e+00,0.000000000000000000e+00
7.710000000000000720e-06,0.000000000000000000e+00,0.000000000000000000e+00,0.000000000000000000e+00,0.000000000000000000e+00
7.720000000000000625e-06,0.000000000000000000e+00,0.000000000000000000e+00,0.000000000000000000e+00,0.000000000000000000e+00
7.730000000000000529e-06,0.000000000000000000e+00,0.000000000000000000e+00,0.000000000000000000e+00,0.000000000000000000e+00
7.740000000000000433e-06,0.000000000000000000e+00,0.000000000000000000e+00,0.000000000000000000e+00,0.000000000000000000e+00
7.750000000000000338e-06,0.000000000000000000e+00,0.000000000000000000e+00,0.000000000000000000e+00,0.000000000000000000e+00
7.760000000000000242e-06,0.000000000000000000e+00,0.000000000000000000e+00,0.000000000000000000e+00,0.000000000000000000e+00
7.770000000000000146e-06,0.000000000000000000e+00,0.000000000000000000e+00,0.000000000000000000e+00,0.000000000000000000e+00
7.780000000000000050e-06,0.000000000000000000e+00,0.000000000000000000e+00,0.000000000000000000e+00,0.000000000000000000e+00
7.789999999999999955e-06,0.000000000000000000e+00,0.000000000000000000e+00,0.000000000000000000e+00,0.000000000000000000e+00
7.800000000000001553e-06,0.000000000000000000e+00,0.000000000000000000e+00,0.000000000000000000e+00,0.000000000000000000e+00
7.809999999999999763e-06,0.000000000000000000e+00,0.000000000000000000e+00,0.000000000000000000e+00,0.000000000000000000e+00
7.819999999999999667e-06,0.000000000000000000e+00,0.000000000000000000e+00,0.000000000000000000e+00,0.000000000000000000e+00
7.829999999999999572e-06,0.000000000000000000e+00,0.000000000000000000e+00,0.000000000000000000e+00,0.000000000000000000e+00
7.839999999999999476e-06,0.000000000000000000e+00,0.000000000000000000e+00,0.000000000000000000e+00,0.000000000000000000e+00
7.849999999999999380e-06,0.000000000000000000e+00,0.000000000000000000e+00,0.000000000000000000e+00,0.000000000000000000e+00
7.859999999999999284e-06,0.000000000000000000e+00,0.000000000000000000e+00,0.000000000000000000e+00,0.000000000000000000e+00
7.870000000000000883e-06,0.000000000000000000e+00,0.000000000000000000e+00,0.000000000000000000e+00,0.000000000000000000e+00
7.879999999999999093e-06,0.000000000000000000e+00,0.000000000000000000e+00,0.000000000000000000e+00,0.000000000000000000e+00
7.890000000000000691e-06,0.000000000000000000e+00,0.000000000000000000e+00,0.000000000000000000e+00,0.000000000000000000e+00
7.900000000000000595e-06,0.000000000000000000e+00,0.000000000000000000e+00,0.000000000000000000e+00,0.000000000000000000e+00
7.910000000000000500e-06,0.000000000000000000e+00,0.000000000000000000e+00,0.000000000000000000e+00,0.000000000000000000e+00
7.920000000000000404e-06,0.000000000000000000e+00,0.000000000000000000e+00,0.000000000000000000e+00,0.000000000000000000e+00
7.930000000000000308e-06,0.000000000000000000e+00,0.000000000000000000e+00,0.000000000000000000e+00,0.000000000000000000e+00
7.940000000000000212e-06,0.000000000000000000e+00,0.000000000000000000e+00,0.000000000000000000e+00,0.000000000000000000e+00
7.950000000000000117e-06,0.000000000000000000e+00,0.000000000000000000e+00,0.000000000000000000e+00,0.000000000000000000e+00
7.960000000000000021e-06,0.000000000000000000e+00,0.000000000000000000e+00,0.000000000000000000e+00,0.000000000000000000e+00
7.969999999999999925e-06,0.000000000000000000e+00,0.000000000000000000e+00,0.000000000000000000e+00,0.000000000000000000e+00
7.979999999999999829e-06,0.000000000000000000e+00,0.000000000000000000e+00,0.000000000000000000e+00,0.000000000000000000e+00
7.989999999999999734e-06,0.000000000000000000e+00,0.000000000000000000e+00,0.000000000000000000e+00,0.000000000000000000e+00
7.999999999999999638e-06,0.000000000000000000e+00,0.000000000000000000e+00,1.000000000000000000e+08,0.000000000000000000e+00
